"Index","Quantity","Part Number","Manufacturer Part Number","Description","Customer Reference","Available","Backorder","Unit Price","Extended Price USD"
"1","6","475-1410-1-ND","LG R971-KN-1","LED GREEN DIFFUSED 0805 SMD","","6","0","0.26000","1.56"
"2","6","NUP2105LT1GOSCT-ND","NUP2105LT1G","TVS DIODE 24V 44V SOT23-3","","6","0","0.42000","2.52"
"3","9","475-1415-1-ND","LH R974-LP-1","LED RED DIFFUSED 0805 SMD","","9","0","0.26000","2.34"
"4","6","475-2560-1-ND","LY R976-PS-36","LED YELLOW DIFFUSED 0805 SMD","","6","0","0.28000","1.68"
"5","15","490-3996-1-ND","BLM18SG121TN1D","FERRITE BEAD 120 OHM 0603 1LN","","15","0","0.11600","1.74"
"6","10","455-1804-1-ND","SM04B-SRSS-TB(LF)(SN)","CONN HEADER SMD R/A 4POS 1MM","","10","0","0.56900","5.69"
"7","3","CP-002B-ND","PJ-002B","CONN PWR JACK 2.5X5.5MM SOLDER","","0","3","0.60000","1.80"
"8","3","732-2109-1-ND","65100516121","CONN RCPT USB2.0 MINI B SMD R/A","","3","0","1.32000","3.96"
"9","10","MMSS8050-H-TPMSCT-ND","MMSS8050-H-TP","TRANS NPN 25V 1.5A SOT23","","10","0","0.16800","1.68"
"10","6","BSS138CT-ND","BSS138","MOSFET N-CH 50V 220MA SOT-23","","6","0","0.26000","1.56"
"11","20","450-1759-1-ND","FSM4JSMATR","SWITCH TACTILE SPST-NO 0.05A 24V","","20","0","0.32800","6.56"
"12","3","535-10241-1-ND","ABS25-32.768KHZ-6-1-T","CRYSTAL 32.7680KHZ 6PF SMD","","3","0","0.77000","2.31"
"13","3","XC1312CT-ND","ECS-80-16-28AX-TR","CRYSTAL 8.0000MHZ 16PF SMD","","3","0","1.29000","3.87"
"14","3","497-18786-1-ND","STM32F412VGT6TR","IC MCU 32BIT 1MB FLASH 100LQFP","","3","0","10.46000","31.38"
"15","100","399-1167-1-ND","C0805C104K4RACTU","CAP CER 0.1UF 16V X7R 0805","","100","0","0.07020","7.02"
"16","10","399-8054-1-ND","C0805C225K4PACTU","CAP CER 2.2UF 16V X5R 0805","","10","0","0.20000","2.00"
"17","10","399-8033-1-ND","C0805C200J5GACTU","CAP CER 20PF 50V C0G/NP0 0805","","10","0","0.22800","2.28"
"18","10","399-9270-1-ND","C0805C689D5GACTU","CAP CER 6.8PF 50V C0G/NP0 0805","","10","0","0.19000","1.90"
"19","20","399-1284-1-ND","C0805C105K4RACTU","CAP CER 1UF 16V X7R 0805","","20","0","0.10900","2.18"
"20","30","490-14381-1-ND","GRM21BR71A106KA73K","CAP CER 10UF 10V X7R 0805","","30","0","0.16700","5.01"
"21","6","1001-2230-1-ND","CWR11MH105KB","CAP TANT 1UF 10% 35V 1411","","6","0","3.48000","20.88"
"22","20","455-2238-ND","B6B-XH-AM(LF)(SN)","CONN HEADER VERT 6POS 2.5MM","","20","0","0.28200","5.64"
"23","25","455-2218-ND","XHP-6","CONN HOUSING 2.5MM XH 6POS","","25","0","0.09560","2.39"
"24","250","455-1135-1-ND","SXH-001T-P0.6","CONN SOCKET 22-28AWG CRIMP TIN","","250","0","0.03132","7.83"
"25","15","455-2270-ND","B5B-XH-A(LF)(SN)","CONN HEADER VERT 5POS 2.5MM","","15","0","0.23700","3.56"
"26","15","455-2268-ND","XHP-5","CONN HOUSING 2.5MM 5POS","","15","0","0.10900","1.64"
"27","15","455-2248-ND","B3B-XH-A(LF)(SN)","CONN HEADER VERT 3POS 2.5MM","","15","0","0.18100","2.72"
"28","15","455-2219-ND","XHP-3","CONN HOUSING 2.5MM XH 3POS","","15","0","0.09800","1.47"
"29","5","455-2879-ND","B2B-XH-A-M(LF)(SN)","CONN HEADER VERT 2POS 2.5MM","","5","0","0.17000","0.85"
"30","5","455-2266-ND","XHP-2","CONN HOUSING 2.5MM 2POS","","5","0","0.10000","0.50"
"31","25","296-21928-1-ND","TXB0104DR","IC TRNSLTR BIDIRECTIONAL 14SOIC","","25","0","0.78400","19.60"
"32","3","336-5890-1-ND","CP2102N-A02-GQFN28R","IC USB TO UART BRIDGE QFN28","","3","0","1.40000","4.20"
"33","10","497-1242-1-ND","LD1117S33TR","IC REG LINEAR 3.3V 800MA SOT223","","10","0","0.35100","3.51"
"34","100","311-10.0KCRCT-ND","RC0805FR-0710KL","RES SMD 10K OHM 1% 1/8W 0805","","100","0","0.01630","1.63"
"35","10","A126350CT-ND","CRG0805F220K","RES SMD 220K OHM 1% 1/8W 0805","","10","0","0.04900","0.49"
"36","20","A126372CT-ND","CRG0805F510R","RES SMD 510 OHM 1% 1/8W 0805","","20","0","0.04900","0.98"
"37","100","311-4.70KCRCT-ND","RC0805FR-074K7L","RES SMD 4.7K OHM 1% 1/8W 0805","","100","0","0.01630","1.63"
"38","100","311-100CRCT-ND","RC0805FR-07100RL","RES SMD 100 OHM 1% 1/8W 0805","","100","0","0.01630","1.63"
"39","500","RMCF0805ZT0R00CT-ND","RMCF0805ZT0R00","RES 0 OHM JUMPER 1/8W 0805","","500","0","0.00476","2.38"
"40","20","A126371CT-ND","CRG0805F47R","RES SMD 47 OHM 1% 1/8W 0805","","20","0","0.04900","0.98"
"41","100","CR0805-FX-2212ELFCT-ND","CR0805-FX-2212ELF","RES SMD 22.1K OHM 1% 1/8W 0805","","100","0","0.01170","1.17"
"42","100","311-47.0KCRCT-ND","RC0805FR-0747KL","RES SMD 47K OHM 1% 1/8W 0805","","100","0","0.01630","1.63"
"43","100","311-2.00KCRCT-ND","RC0805FR-072KL","RES SMD 2K OHM 1% 1/8W 0805","","100","0","0.01630","1.63"
"44","100","311-1.00KCRCT-ND","RC0805FR-071KL","RES SMD 1K OHM 1% 1/8W 0805","","100","0","0.01630","1.63"