
(module BEADC1608X65N (layer F.Cu) (tedit 5E839271)
  (descr "")
  (fp_text reference REF** (at -0.24 -1.07 0) (layer F.SilkS)
    (effects (font (size 0.393700787402 0.393700787402) (thickness 0.015)))
  )
  (fp_text value BEADC1608X65N (at 1.76 1.07 0) (layer F.Fab)
    (effects (font (size 0.393700787402 0.393700787402) (thickness 0.015)))
  )
  (fp_line (start 0.88 0.48) (end -0.88 0.48) (layer F.Fab) (width 0.127))
  (fp_line (start 0.88 -0.48) (end -0.88 -0.48) (layer F.Fab) (width 0.127))
  (fp_line (start 0.88 0.48) (end 0.88 -0.48) (layer F.Fab) (width 0.127))
  (fp_line (start -0.88 0.48) (end -0.88 -0.48) (layer F.Fab) (width 0.127))
  (fp_line (start -1.485 0.735) (end 1.485 0.735) (layer F.CrtYd) (width 0.05))
  (fp_line (start -1.485 -0.735) (end 1.485 -0.735) (layer F.CrtYd) (width 0.05))
  (fp_line (start -1.485 0.735) (end -1.485 -0.735) (layer F.CrtYd) (width 0.05))
  (fp_line (start 1.485 0.735) (end 1.485 -0.735) (layer F.CrtYd) (width 0.05))
  (pad 1 smd rect (at -0.735 0.0) (size 1.0 0.97) (layers F.Cu F.Mask F.Paste))
  (pad 2 smd rect (at 0.735 0.0) (size 1.0 0.97) (layers F.Cu F.Mask F.Paste))
)