EESchema Schematic File Version 4
EELAYER 30 0
EELAYER END
$Descr A3 16535 11693
encoding utf-8
Sheet 3 4
Title ""
Date ""
Rev ""
Comp ""
Comment1 ""
Comment2 ""
Comment3 ""
Comment4 ""
$EndDescr
$Comp
L ESP32-Wrover:ESP32-WROVER-I U18
U 1 1 5E83822F
P 6050 2300
AR Path="/5E837FB0/5E83822F" Ref="U18"  Part="1" 
AR Path="/5F110777/5E83822F" Ref="U?"  Part="1" 
F 0 "U18" H 6050 3667 50  0000 C CNN
F 1 "ESP32-WROVER-I" H 6050 3576 50  0000 C CNN
F 2 "ESP32-WROVER-I:XCVR_ESP32-WROVER-I" H 6050 2300 50  0001 L BNN
F 3 "Unavailable" H 6050 2300 50  0001 L BNN
F 4 "ESP32-WROVER-I" H 6050 2300 50  0001 L BNN "Field4"
F 5 "None" H 6050 2300 50  0001 L BNN "Field5"
F 6 "Module Espressif Systems" H 6050 2300 50  0001 L BNN "Field6"
F 7 "Module: combo; GPIO, I2C x2, I2S x2, SDIO, SPI x3, UART x3; U.FL" H 6050 2300 50  0001 L BNN "Field7"
F 8 "Espressif Systems" H 6050 2300 50  0001 L BNN "Field8"
	1    6050 2300
	1    0    0    -1  
$EndComp
Wire Wire Line
	6650 2950 6750 2950
Wire Wire Line
	6750 2950 6750 3050
Wire Wire Line
	6750 3050 6650 3050
Wire Wire Line
	6650 3150 6750 3150
Wire Wire Line
	6750 3150 6750 3050
Connection ~ 6750 3050
Wire Wire Line
	6750 3150 7050 3150
Connection ~ 6750 3150
Wire Wire Line
	6650 3300 6750 3300
Wire Wire Line
	6750 3300 6750 3150
Wire Wire Line
	6650 2800 7050 2800
Wire Wire Line
	6650 2700 7050 2700
Wire Wire Line
	6650 2400 7050 2400
Wire Wire Line
	6650 2300 7050 2300
Wire Wire Line
	6650 2200 7050 2200
Wire Wire Line
	6650 2100 7050 2100
Wire Wire Line
	6650 2000 7050 2000
Wire Wire Line
	6650 1900 7050 1900
Wire Wire Line
	6650 1400 7050 1400
Wire Wire Line
	6650 1200 7050 1200
Wire Wire Line
	5450 1200 5050 1200
Wire Wire Line
	5050 1300 5450 1300
Wire Wire Line
	5450 1400 5050 1400
Wire Wire Line
	5050 1500 5450 1500
Wire Wire Line
	5450 1600 5050 1600
Wire Wire Line
	5050 1700 5450 1700
Wire Wire Line
	5450 1800 5050 1800
Wire Wire Line
	5450 1900 5050 1900
Wire Wire Line
	5450 2000 5050 2000
Wire Wire Line
	5450 2100 5050 2100
Wire Wire Line
	5450 2200 5050 2200
Wire Wire Line
	5450 2300 5050 2300
Wire Wire Line
	5450 2400 5050 2400
Wire Wire Line
	5450 2500 5050 2500
Wire Wire Line
	5450 2600 5050 2600
Wire Wire Line
	5450 2700 5050 2700
Wire Wire Line
	5450 2800 5050 2800
Wire Wire Line
	5450 2900 5050 2900
Wire Wire Line
	5450 3000 5050 3000
Wire Wire Line
	5450 3100 5050 3100
Wire Wire Line
	5450 3200 5050 3200
Wire Wire Line
	5450 3300 5050 3300
Text Label 5050 1200 0    50   ~ 0
IO0
Text Label 5050 1300 0    50   ~ 0
IO2
Text Label 5050 1400 0    50   ~ 0
IO4
Text Label 5050 1500 0    50   ~ 0
IO5
Text Label 5050 1600 0    50   ~ 0
IO12
Text Label 5050 1700 0    50   ~ 0
IO13
Text Label 5050 1800 0    50   ~ 0
IO14
Text Label 5050 1900 0    50   ~ 0
IO15
Text Label 5050 2000 0    50   ~ 0
IO16_NC
Text Label 5050 2100 0    50   ~ 0
IO17_NC
Text Label 5050 2200 0    50   ~ 0
IO18
Text Label 5050 2300 0    50   ~ 0
IO19
Text Label 5050 2400 0    50   ~ 0
IO21
Text Label 5050 2500 0    50   ~ 0
IO22
Text Label 5050 2600 0    50   ~ 0
IO23
Text Label 5050 2700 0    50   ~ 0
IO25
Text Label 5050 2800 0    50   ~ 0
IO26
Text Label 5050 2900 0    50   ~ 0
IO27
Text Label 5050 3000 0    50   ~ 0
IO32
Text Label 5050 3100 0    50   ~ 0
IO33
Text Label 5050 3200 0    50   ~ 0
IO34
Text Label 5050 3300 0    50   ~ 0
IO35
Text Label 7050 1600 2    50   ~ 0
SENS_VP
Text Label 7050 1700 2    50   ~ 0
SENS_VN
Text Label 7050 1400 2    50   ~ 0
EN
Text Label 7050 2400 2    50   ~ 0
SPI_CLK
Text Label 7050 2300 2    50   ~ 0
SPI_CMD
Text Label 7050 2200 2    50   ~ 0
SPI_SD3
Text Label 7050 2100 2    50   ~ 0
SPI_SD2
Text Label 7050 2000 2    50   ~ 0
SPI_SD1
Text Label 7050 1900 2    50   ~ 0
SPI_SD0
Text Label 7050 2700 2    50   ~ 0
RXD0
Text Label 7050 2800 2    50   ~ 0
TXD0
$Comp
L Device:R R108
U 1 1 5E85B4D6
P 2150 3000
AR Path="/5E837FB0/5E85B4D6" Ref="R108"  Part="1" 
AR Path="/5F110777/5E85B4D6" Ref="R?"  Part="1" 
F 0 "R108" V 2100 2850 50  0000 C CNN
F 1 "10K(1%)" V 2100 3300 50  0000 C CNN
F 2 "Resistor_SMD:R_0805_2012Metric_Pad1.15x1.40mm_HandSolder" V 2080 3000 50  0001 C CNN
F 3 "~" H 2150 3000 50  0001 C CNN
	1    2150 3000
	0    1    1    0   
$EndComp
$Comp
L Device:C C23
U 1 1 5E85D249
P 2150 3300
AR Path="/5E837FB0/5E85D249" Ref="C23"  Part="1" 
AR Path="/5F110777/5E85D249" Ref="C?"  Part="1" 
F 0 "C23" V 2200 3450 50  0000 C CNN
F 1 "0.1uF/16V(10%)" V 2200 2900 50  0000 C CNN
F 2 "Capacitor_SMD:C_0805_2012Metric_Pad1.15x1.40mm_HandSolder" H 2188 3150 50  0001 C CNN
F 3 "~" H 2150 3300 50  0001 C CNN
	1    2150 3300
	0    -1   -1   0   
$EndComp
$Comp
L power:GND #PWR0105
U 1 1 5E8622BE
P 1400 3400
AR Path="/5E837FB0/5E8622BE" Ref="#PWR0105"  Part="1" 
AR Path="/5F110777/5E8622BE" Ref="#PWR?"  Part="1" 
F 0 "#PWR0105" H 1400 3150 50  0001 C CNN
F 1 "GND" H 1405 3227 50  0000 C CNN
F 2 "" H 1400 3400 50  0001 C CNN
F 3 "" H 1400 3400 50  0001 C CNN
	1    1400 3400
	1    0    0    -1  
$EndComp
Wire Wire Line
	1400 3000 2000 3000
Wire Wire Line
	1400 3300 2000 3300
Wire Wire Line
	1400 3400 1400 3300
Wire Wire Line
	2300 3000 2900 3000
Wire Wire Line
	2300 3300 2900 3300
Wire Wire Line
	2900 3000 2900 3150
Wire Wire Line
	2900 3150 3300 3150
Connection ~ 2900 3150
Wire Wire Line
	2900 3150 2900 3300
Text Label 3300 3150 2    50   ~ 0
EN
$Comp
L Device:R R107
U 1 1 5E87489E
P 1500 1650
AR Path="/5E837FB0/5E87489E" Ref="R107"  Part="1" 
AR Path="/5F110777/5E87489E" Ref="R?"  Part="1" 
F 0 "R107" V 1450 1500 50  0000 C CNN
F 1 "0(5%)" V 1450 1950 50  0000 C CNN
F 2 "Resistor_SMD:R_0805_2012Metric_Pad1.15x1.40mm_HandSolder" V 1430 1650 50  0001 C CNN
F 3 "~" H 1500 1650 50  0001 C CNN
	1    1500 1650
	0    1    1    0   
$EndComp
$Comp
L Device:C C22
U 1 1 5E875015
P 2100 2000
AR Path="/5E837FB0/5E875015" Ref="C22"  Part="1" 
AR Path="/5F110777/5E875015" Ref="C?"  Part="1" 
F 0 "C22" H 2200 2100 50  0000 C CNN
F 1 "100uF/6.3V(20%)" H 2450 1900 50  0000 C CNN
F 2 "Capacitor_SMD:C_0805_2012Metric_Pad1.15x1.40mm_HandSolder" H 2138 1850 50  0001 C CNN
F 3 "~" H 2100 2000 50  0001 C CNN
	1    2100 2000
	1    0    0    -1  
$EndComp
$Comp
L Device:C C25
U 1 1 5E876CE4
P 2900 2000
AR Path="/5E837FB0/5E876CE4" Ref="C25"  Part="1" 
AR Path="/5F110777/5E876CE4" Ref="C?"  Part="1" 
F 0 "C25" H 3000 2100 50  0000 C CNN
F 1 "1uF/16V(10%)" H 3250 1900 50  0000 C CNN
F 2 "Capacitor_SMD:C_0805_2012Metric_Pad1.15x1.40mm_HandSolder" H 2938 1850 50  0001 C CNN
F 3 "~" H 2900 2000 50  0001 C CNN
	1    2900 2000
	1    0    0    -1  
$EndComp
$Comp
L power:GND #PWR0107
U 1 1 5E8778D6
P 2100 2350
AR Path="/5E837FB0/5E8778D6" Ref="#PWR0107"  Part="1" 
AR Path="/5F110777/5E8778D6" Ref="#PWR?"  Part="1" 
F 0 "#PWR0107" H 2100 2100 50  0001 C CNN
F 1 "GND" H 2105 2177 50  0000 C CNN
F 2 "" H 2100 2350 50  0001 C CNN
F 3 "" H 2100 2350 50  0001 C CNN
	1    2100 2350
	1    0    0    -1  
$EndComp
Wire Wire Line
	2100 2350 2100 2250
Wire Wire Line
	2900 2150 2900 2250
Wire Wire Line
	2900 2250 2100 2250
Connection ~ 2100 2250
Wire Wire Line
	2100 2250 2100 2150
Wire Wire Line
	2900 1850 2900 1650
Wire Wire Line
	2900 1650 2100 1650
Wire Wire Line
	2100 1850 2100 1650
Connection ~ 2100 1650
Wire Wire Line
	2100 1650 1650 1650
Wire Wire Line
	2900 1650 3300 1650
Connection ~ 2900 1650
Wire Wire Line
	1350 1650 950  1650
$Comp
L Interface_USB:CP2102N-A01-GQFN28 U17
U 1 1 5E83ABBD
P 4950 6200
AR Path="/5E837FB0/5E83ABBD" Ref="U17"  Part="1" 
AR Path="/5F110777/5E83ABBD" Ref="U?"  Part="1" 
F 0 "U17" H 4350 5000 50  0000 C CNN
F 1 "CP2102N" H 4350 4900 50  0000 C CNN
F 2 "Package_DFN_QFN:QFN-28-1EP_5x5mm_P0.5mm_EP3.35x3.35mm" H 5400 5000 50  0001 L CNN
F 3 "https://www.silabs.com/documents/public/data-sheets/cp2102n-datasheet.pdf" H 5000 5450 50  0001 C CNN
	1    4950 6200
	1    0    0    -1  
$EndComp
Wire Wire Line
	4450 5600 4050 5600
Wire Wire Line
	4050 5700 4450 5700
Text Label 4050 5600 0    50   ~ 0
D+
Text Label 4050 5700 0    50   ~ 0
D-
Wire Wire Line
	4450 5500 4050 5500
$Comp
L power:GND #PWR0113
U 1 1 5E8E558A
P 4950 7600
AR Path="/5E837FB0/5E8E558A" Ref="#PWR0113"  Part="1" 
AR Path="/5F110777/5E8E558A" Ref="#PWR?"  Part="1" 
F 0 "#PWR0113" H 4950 7350 50  0001 C CNN
F 1 "GND" H 4955 7427 50  0000 C CNN
F 2 "" H 4950 7600 50  0001 C CNN
F 3 "" H 4950 7600 50  0001 C CNN
	1    4950 7600
	1    0    0    -1  
$EndComp
Wire Wire Line
	4950 7500 4950 7600
Wire Wire Line
	5850 5800 5450 5800
Text Label 5850 5700 2    50   ~ 0
DCD
Text Label 5850 5800 2    50   ~ 0
RI
$Comp
L Device:R R111
U 1 1 5E8FE860
P 3200 5100
AR Path="/5E837FB0/5E8FE860" Ref="R111"  Part="1" 
AR Path="/5F110777/5E8FE860" Ref="R?"  Part="1" 
F 0 "R111" H 3130 5054 50  0000 R CNN
F 1 "0R(1%)" H 3130 5145 50  0000 R CNN
F 2 "Resistor_SMD:R_0805_2012Metric_Pad1.15x1.40mm_HandSolder" V 3130 5100 50  0001 C CNN
F 3 "~" H 3200 5100 50  0001 C CNN
	1    3200 5100
	-1   0    0    1   
$EndComp
$Comp
L Device:C C26
U 1 1 5E8FFDF2
P 3200 5600
AR Path="/5E837FB0/5E8FFDF2" Ref="C26"  Part="1" 
AR Path="/5F110777/5E8FFDF2" Ref="C?"  Part="1" 
F 0 "C26" H 3315 5646 50  0000 L CNN
F 1 "0.1uF/16V(10%)" H 3315 5555 50  0000 L CNN
F 2 "Capacitor_SMD:C_0805_2012Metric_Pad1.15x1.40mm_HandSolder" H 3238 5450 50  0001 C CNN
F 3 "~" H 3200 5600 50  0001 C CNN
	1    3200 5600
	1    0    0    -1  
$EndComp
$Comp
L Device:C C24
U 1 1 5E900E65
P 2800 5600
AR Path="/5E837FB0/5E900E65" Ref="C24"  Part="1" 
AR Path="/5F110777/5E900E65" Ref="C?"  Part="1" 
F 0 "C24" H 2600 5650 50  0000 L CNN
F 1 "10uF/16V(10%)" H 2100 5550 50  0000 L CNN
F 2 "Capacitor_SMD:C_0805_2012Metric_Pad1.15x1.40mm_HandSolder" H 2838 5450 50  0001 C CNN
F 3 "~" H 2800 5600 50  0001 C CNN
	1    2800 5600
	1    0    0    -1  
$EndComp
Wire Wire Line
	3200 5450 3200 5350
Wire Wire Line
	3200 5750 3200 5850
Wire Wire Line
	3200 5850 3000 5850
Wire Wire Line
	2800 5850 2800 5750
Wire Wire Line
	2800 5450 2800 5350
Wire Wire Line
	2800 5350 3200 5350
Wire Wire Line
	3200 5250 3200 5350
Connection ~ 3200 5350
$Comp
L power:GND #PWR0108
U 1 1 5E919A91
P 3000 5900
AR Path="/5E837FB0/5E919A91" Ref="#PWR0108"  Part="1" 
AR Path="/5F110777/5E919A91" Ref="#PWR?"  Part="1" 
F 0 "#PWR0108" H 3000 5650 50  0001 C CNN
F 1 "GND" H 3005 5727 50  0000 C CNN
F 2 "" H 3000 5900 50  0001 C CNN
F 3 "" H 3000 5900 50  0001 C CNN
	1    3000 5900
	1    0    0    -1  
$EndComp
Wire Wire Line
	3000 5900 3000 5850
Connection ~ 3000 5850
Wire Wire Line
	3000 5850 2800 5850
Wire Wire Line
	3200 5350 3600 5350
Text Label 3600 5350 2    50   ~ 0
REGIN
Wire Wire Line
	4850 4900 4850 4800
Text Label 4850 4500 3    50   ~ 0
REGIN
Wire Wire Line
	4950 4900 4950 4800
Wire Wire Line
	4950 4800 4850 4800
Connection ~ 4850 4800
Wire Wire Line
	4850 4800 4850 4500
Wire Wire Line
	3200 4950 3200 4550
$Comp
L power:+3V3 #PWR0109
U 1 1 5E937084
P 3200 4550
AR Path="/5E837FB0/5E937084" Ref="#PWR0109"  Part="1" 
AR Path="/5F110777/5E937084" Ref="#PWR?"  Part="1" 
F 0 "#PWR0109" H 3200 4400 50  0001 C CNN
F 1 "+3V3" H 3215 4723 50  0000 C CNN
F 2 "" H 3200 4550 50  0001 C CNN
F 3 "" H 3200 4550 50  0001 C CNN
	1    3200 4550
	1    0    0    -1  
$EndComp
Wire Wire Line
	5450 5700 5850 5700
Wire Wire Line
	5850 5600 5450 5600
Wire Wire Line
	5850 5500 5450 5500
Wire Wire Line
	5850 5200 5450 5200
Wire Wire Line
	5850 5100 5450 5100
Text Label 5850 5600 2    50   ~ 0
DTR
Text Label 5850 5500 2    50   ~ 0
DSR
Text Label 5850 5400 2    50   ~ 0
TXD
Text Label 5850 5300 2    50   ~ 0
RXD
Text Label 5850 5200 2    50   ~ 0
RTS
Text Label 5850 5100 2    50   ~ 0
CTS
$Comp
L Device:R R116
U 1 1 5E95C87A
P 6150 5300
AR Path="/5E837FB0/5E95C87A" Ref="R116"  Part="1" 
AR Path="/5F110777/5E95C87A" Ref="R?"  Part="1" 
F 0 "R116" V 5943 5300 50  0000 C CNN
F 1 "0R(1%)" V 6034 5300 50  0000 C CNN
F 2 "Resistor_SMD:R_0805_2012Metric_Pad1.15x1.40mm_HandSolder" V 6080 5300 50  0001 C CNN
F 3 "~" H 6150 5300 50  0001 C CNN
	1    6150 5300
	0    1    1    0   
$EndComp
$Comp
L Device:R R117
U 1 1 5E965E17
P 6150 5400
AR Path="/5E837FB0/5E965E17" Ref="R117"  Part="1" 
AR Path="/5F110777/5E965E17" Ref="R?"  Part="1" 
F 0 "R117" V 6350 5400 50  0000 C CNN
F 1 "0R(1%)" V 6250 5400 50  0000 C CNN
F 2 "Resistor_SMD:R_0805_2012Metric_Pad1.15x1.40mm_HandSolder" V 6080 5400 50  0001 C CNN
F 3 "~" H 6150 5400 50  0001 C CNN
	1    6150 5400
	0    1    1    0   
$EndComp
Wire Wire Line
	5450 5300 6000 5300
Wire Wire Line
	5450 5400 6000 5400
Wire Wire Line
	6300 5300 6700 5300
Wire Wire Line
	6700 5400 6300 5400
Text Label 6700 5400 2    50   ~ 0
RXD0
Text Label 6700 5300 2    50   ~ 0
TXD0
Wire Wire Line
	5450 7300 5650 7300
Wire Wire Line
	5450 7200 5650 7200
Wire Wire Line
	5450 7100 5650 7100
Wire Wire Line
	5450 6400 5650 6400
Wire Wire Line
	5450 6300 5650 6300
Wire Wire Line
	5450 6500 5650 6500
Wire Wire Line
	5450 7000 5650 7000
Wire Wire Line
	5450 6900 5650 6900
Wire Wire Line
	5450 6800 5650 6800
Wire Wire Line
	5450 6700 5650 6700
NoConn ~ 5650 6300
NoConn ~ 5650 6400
NoConn ~ 5650 6500
NoConn ~ 5650 6700
NoConn ~ 5650 6800
NoConn ~ 5650 6900
NoConn ~ 5650 7000
NoConn ~ 5650 7100
NoConn ~ 5650 7200
NoConn ~ 5650 7300
$Comp
L Device:R R109
U 1 1 5EA0DAA1
P 2550 6300
AR Path="/5E837FB0/5EA0DAA1" Ref="R109"  Part="1" 
AR Path="/5F110777/5EA0DAA1" Ref="R?"  Part="1" 
F 0 "R109" V 2757 6300 50  0000 C CNN
F 1 "22.1K(1%)" V 2666 6300 50  0000 C CNN
F 2 "Resistor_SMD:R_0805_2012Metric_Pad1.15x1.40mm_HandSolder" V 2480 6300 50  0001 C CNN
F 3 "~" H 2550 6300 50  0001 C CNN
	1    2550 6300
	0    -1   -1   0   
$EndComp
Wire Wire Line
	2400 6300 2000 6300
$Comp
L Device:R R110
U 1 1 5EA18F0B
P 2900 6650
AR Path="/5E837FB0/5EA18F0B" Ref="R110"  Part="1" 
AR Path="/5F110777/5EA18F0B" Ref="R?"  Part="1" 
F 0 "R110" H 2625 6700 50  0000 L CNN
F 1 "47.5K(1%)" H 2450 6600 50  0000 L CNN
F 2 "Resistor_SMD:R_0805_2012Metric_Pad1.15x1.40mm_HandSolder" V 2830 6650 50  0001 C CNN
F 3 "~" H 2900 6650 50  0001 C CNN
	1    2900 6650
	1    0    0    -1  
$EndComp
$Comp
L Device:C C27
U 1 1 5EA1F400
P 3200 6650
AR Path="/5E837FB0/5EA1F400" Ref="C27"  Part="1" 
AR Path="/5F110777/5EA1F400" Ref="C?"  Part="1" 
F 0 "C27" H 3315 6696 50  0000 L CNN
F 1 "10uF/16V(10%)" V 3350 5950 50  0000 L CNN
F 2 "Capacitor_SMD:C_0805_2012Metric_Pad1.15x1.40mm_HandSolder" H 3238 6500 50  0001 C CNN
F 3 "~" H 3200 6650 50  0001 C CNN
	1    3200 6650
	1    0    0    -1  
$EndComp
$Comp
L Device:C C28
U 1 1 5EA1F9FF
P 3550 6650
AR Path="/5E837FB0/5EA1F9FF" Ref="C28"  Part="1" 
AR Path="/5F110777/5EA1F9FF" Ref="C?"  Part="1" 
F 0 "C28" H 3665 6696 50  0000 L CNN
F 1 "0.1uF/16V(10%)" V 3700 5950 50  0000 L CNN
F 2 "Capacitor_SMD:C_0805_2012Metric_Pad1.15x1.40mm_HandSolder" H 3588 6500 50  0001 C CNN
F 3 "~" H 3550 6650 50  0001 C CNN
	1    3550 6650
	1    0    0    -1  
$EndComp
Wire Wire Line
	2700 6300 2900 6300
Wire Wire Line
	3550 6300 3550 6500
Wire Wire Line
	3200 6500 3200 6300
Connection ~ 3200 6300
Wire Wire Line
	3200 6300 3550 6300
Wire Wire Line
	2900 6500 2900 6300
Connection ~ 2900 6300
Wire Wire Line
	2900 6300 3200 6300
Wire Wire Line
	2900 6800 2900 6900
Wire Wire Line
	2900 6900 3200 6900
Wire Wire Line
	3550 6900 3550 6800
Wire Wire Line
	3200 6800 3200 6900
Connection ~ 3200 6900
Wire Wire Line
	3200 6900 3550 6900
$Comp
L power:GND #PWR0110
U 1 1 5EA3CC30
P 3200 7000
AR Path="/5E837FB0/5EA3CC30" Ref="#PWR0110"  Part="1" 
AR Path="/5F110777/5EA3CC30" Ref="#PWR?"  Part="1" 
F 0 "#PWR0110" H 3200 6750 50  0001 C CNN
F 1 "GND" H 3205 6827 50  0000 C CNN
F 2 "" H 3200 7000 50  0001 C CNN
F 3 "" H 3200 7000 50  0001 C CNN
	1    3200 7000
	1    0    0    -1  
$EndComp
Wire Wire Line
	3200 7000 3200 6900
Text Label 3200 6300 0    50   ~ 0
CP_VBUS
Text Label 4050 5500 0    50   ~ 0
CP_VBUS
Text Label 4050 5300 0    50   ~ 0
RST#
$Comp
L Device:R R112
U 1 1 5EA6377C
P 3950 5050
AR Path="/5E837FB0/5EA6377C" Ref="R112"  Part="1" 
AR Path="/5F110777/5EA6377C" Ref="R?"  Part="1" 
F 0 "R112" H 3880 5004 50  0000 R CNN
F 1 "2K(1%)" H 3880 5095 50  0000 R CNN
F 2 "Resistor_SMD:R_0805_2012Metric_Pad1.15x1.40mm_HandSolder" V 3880 5050 50  0001 C CNN
F 3 "~" H 3950 5050 50  0001 C CNN
	1    3950 5050
	-1   0    0    1   
$EndComp
$Comp
L power:+3V3 #PWR0112
U 1 1 5EA63D89
P 3950 4550
AR Path="/5E837FB0/5EA63D89" Ref="#PWR0112"  Part="1" 
AR Path="/5F110777/5EA63D89" Ref="#PWR?"  Part="1" 
F 0 "#PWR0112" H 3950 4400 50  0001 C CNN
F 1 "+3V3" H 3965 4723 50  0000 C CNN
F 2 "" H 3950 4550 50  0001 C CNN
F 3 "" H 3950 4550 50  0001 C CNN
	1    3950 4550
	1    0    0    -1  
$EndComp
Wire Wire Line
	3950 4550 3950 4900
Wire Wire Line
	3950 5200 3950 5300
Wire Wire Line
	3950 5300 4450 5300
$Comp
L Device:R R118
U 1 1 5EA71203
P 6150 6000
AR Path="/5E837FB0/5EA71203" Ref="R118"  Part="1" 
AR Path="/5F110777/5EA71203" Ref="R?"  Part="1" 
F 0 "R118" V 6350 6000 50  0000 C CNN
F 1 "10K(1%)(NC)" V 6250 6000 50  0000 C CNN
F 2 "Resistor_SMD:R_0805_2012Metric_Pad1.15x1.40mm_HandSolder" V 6080 6000 50  0001 C CNN
F 3 "~" H 6150 6000 50  0001 C CNN
	1    6150 6000
	0    1    1    0   
$EndComp
Wire Wire Line
	6000 6000 5450 6000
$Comp
L power:GND #PWR0114
U 1 1 5EA77E8D
P 6400 6100
AR Path="/5E837FB0/5EA77E8D" Ref="#PWR0114"  Part="1" 
AR Path="/5F110777/5EA77E8D" Ref="#PWR?"  Part="1" 
F 0 "#PWR0114" H 6400 5850 50  0001 C CNN
F 1 "GND" H 6405 5927 50  0000 C CNN
F 2 "" H 6400 6100 50  0001 C CNN
F 3 "" H 6400 6100 50  0001 C CNN
	1    6400 6100
	1    0    0    -1  
$EndComp
Wire Wire Line
	6400 6100 6400 6000
Wire Wire Line
	6400 6000 6300 6000
Wire Wire Line
	5450 6100 5650 6100
Text Label 5650 6000 2    50   ~ 0
TP1
Text Label 5650 6100 2    50   ~ 0
TP2
$Comp
L Connector:TestPoint TP1
U 1 1 5EA862FE
P 7300 5400
AR Path="/5E837FB0/5EA862FE" Ref="TP1"  Part="1" 
AR Path="/5F110777/5EA862FE" Ref="TP?"  Part="1" 
F 0 "TP1" V 7254 5588 50  0000 L CNN
F 1 "TP1" V 7345 5588 50  0000 L CNN
F 2 "TestPoint:TestPoint_Pad_D2.0mm" H 7500 5400 50  0001 C CNN
F 3 "~" H 7500 5400 50  0001 C CNN
	1    7300 5400
	0    1    1    0   
$EndComp
$Comp
L Connector:TestPoint TP2
U 1 1 5EA877C8
P 7300 5600
AR Path="/5E837FB0/5EA877C8" Ref="TP2"  Part="1" 
AR Path="/5F110777/5EA877C8" Ref="TP?"  Part="1" 
F 0 "TP2" V 7254 5788 50  0000 L CNN
F 1 "TP2" V 7345 5788 50  0000 L CNN
F 2 "TestPoint:TestPoint_Pad_D2.0mm" H 7500 5600 50  0001 C CNN
F 3 "~" H 7500 5600 50  0001 C CNN
	1    7300 5600
	0    1    1    0   
$EndComp
Wire Wire Line
	7300 5400 7100 5400
Wire Wire Line
	7300 5600 7100 5600
Text Label 7100 5400 0    50   ~ 0
TP1
Text Label 7100 5600 0    50   ~ 0
TP2
$Comp
L Device:R R119
U 1 1 5EA9CC72
P 7000 7050
AR Path="/5E837FB0/5EA9CC72" Ref="R119"  Part="1" 
AR Path="/5F110777/5EA9CC72" Ref="R?"  Part="1" 
F 0 "R119" V 6800 7050 50  0000 C CNN
F 1 "1K(1%)" V 6900 7050 50  0000 C CNN
F 2 "Resistor_SMD:R_0805_2012Metric_Pad1.15x1.40mm_HandSolder" V 6930 7050 50  0001 C CNN
F 3 "~" H 7000 7050 50  0001 C CNN
	1    7000 7050
	0    1    1    0   
$EndComp
$Comp
L Device:R R120
U 1 1 5EA9D922
P 7000 7200
AR Path="/5E837FB0/5EA9D922" Ref="R120"  Part="1" 
AR Path="/5F110777/5EA9D922" Ref="R?"  Part="1" 
F 0 "R120" V 7200 7200 50  0000 C CNN
F 1 "1K(1%)" V 7100 7200 50  0000 C CNN
F 2 "Resistor_SMD:R_0805_2012Metric_Pad1.15x1.40mm_HandSolder" V 6930 7200 50  0001 C CNN
F 3 "~" H 7000 7200 50  0001 C CNN
	1    7000 7200
	0    1    1    0   
$EndComp
$Comp
L Device:LED D1
U 1 1 5EAA79F9
P 7450 7050
AR Path="/5E837FB0/5EAA79F9" Ref="D1"  Part="1" 
AR Path="/5F110777/5EAA79F9" Ref="D?"  Part="1" 
F 0 "D1" H 7443 7266 50  0000 C CNN
F 1 "RX_LED" H 7443 7175 50  0000 C CNN
F 2 "LED_SMD:LED_0805_2012Metric" H 7450 7050 50  0001 C CNN
F 3 "~" H 7450 7050 50  0001 C CNN
	1    7450 7050
	1    0    0    -1  
$EndComp
$Comp
L Device:LED D2
U 1 1 5EAA7E60
P 7450 7200
AR Path="/5E837FB0/5EAA7E60" Ref="D2"  Part="1" 
AR Path="/5F110777/5EAA7E60" Ref="D?"  Part="1" 
F 0 "D2" H 7450 7000 50  0000 C CNN
F 1 "TX_LED" H 7450 7100 50  0000 C CNN
F 2 "LED_SMD:LED_0805_2012Metric" H 7450 7200 50  0001 C CNN
F 3 "~" H 7450 7200 50  0001 C CNN
	1    7450 7200
	1    0    0    -1  
$EndComp
Wire Wire Line
	7300 7050 7150 7050
Wire Wire Line
	7300 7200 7150 7200
Wire Wire Line
	7600 7200 7750 7200
Wire Wire Line
	7750 7200 7750 7050
Wire Wire Line
	7750 7050 7600 7050
Connection ~ 7750 7050
Wire Wire Line
	8100 7050 8100 6900
Wire Wire Line
	7750 7050 8100 7050
$Comp
L power:+3V3 #PWR0117
U 1 1 5EACCE91
P 8100 6900
AR Path="/5E837FB0/5EACCE91" Ref="#PWR0117"  Part="1" 
AR Path="/5F110777/5EACCE91" Ref="#PWR?"  Part="1" 
F 0 "#PWR0117" H 8100 6750 50  0001 C CNN
F 1 "+3V3" H 8115 7073 50  0000 C CNN
F 2 "" H 8100 6900 50  0001 C CNN
F 3 "" H 8100 6900 50  0001 C CNN
	1    8100 6900
	1    0    0    -1  
$EndComp
Wire Wire Line
	6850 7050 6650 7050
Wire Wire Line
	6850 7200 6650 7200
Text Label 6650 7050 0    50   ~ 0
RXD
Text Label 6650 7200 0    50   ~ 0
TXD
$Comp
L MMSS8050:MMSS8050-H-TP Q3
U 1 1 5E86A080
P 4700 10400
AR Path="/5E837FB0/5E86A080" Ref="Q3"  Part="1" 
AR Path="/5F110777/5E86A080" Ref="Q?"  Part="1" 
F 0 "Q3" H 4844 10354 50  0000 L CNN
F 1 "MMSS8050-H-TP" H 4844 10445 50  0000 L CNN
F 2 "MMSS8050:TRANS_MMSS8050-H-TP" H 4700 10400 50  0001 L BNN
F 3 "1.22mm" H 4700 10400 50  0001 L BNN
F 4 "D" H 4700 10400 50  0001 L BNN "Field4"
F 5 "MCC" H 4700 10400 50  0001 L BNN "Field5"
F 6 "Manufacturer recommendations" H 4700 10400 50  0001 L BNN "Field6"
	1    4700 10400
	1    0    0    1   
$EndComp
$Comp
L MMSS8050:MMSS8050-H-TP Q1
U 1 1 5E86B528
P 4700 8900
AR Path="/5E837FB0/5E86B528" Ref="Q1"  Part="1" 
AR Path="/5F110777/5E86B528" Ref="Q?"  Part="1" 
F 0 "Q1" H 4844 8946 50  0000 L CNN
F 1 "MMSS8050-H-TP" H 4844 8855 50  0000 L CNN
F 2 "MMSS8050:TRANS_MMSS8050-H-TP" H 4700 8900 50  0001 L BNN
F 3 "1.22mm" H 4700 8900 50  0001 L BNN
F 4 "D" H 4700 8900 50  0001 L BNN "Field4"
F 5 "MCC" H 4700 8900 50  0001 L BNN "Field5"
F 6 "Manufacturer recommendations" H 4700 8900 50  0001 L BNN "Field6"
	1    4700 8900
	1    0    0    -1  
$EndComp
$Comp
L Device:R R113
U 1 1 5E86C573
P 3950 8900
AR Path="/5E837FB0/5E86C573" Ref="R113"  Part="1" 
AR Path="/5F110777/5E86C573" Ref="R?"  Part="1" 
F 0 "R113" V 3900 8700 50  0000 C CNN
F 1 "10K(1%)" V 3900 9200 50  0000 C CNN
F 2 "Resistor_SMD:R_0805_2012Metric_Pad1.15x1.40mm_HandSolder" V 3880 8900 50  0001 C CNN
F 3 "~" H 3950 8900 50  0001 C CNN
	1    3950 8900
	0    1    1    0   
$EndComp
$Comp
L MMSS8050:MMSS8050-H-TP Q2
U 1 1 5E86CDA0
P 4700 9650
AR Path="/5E837FB0/5E86CDA0" Ref="Q2"  Part="1" 
AR Path="/5F110777/5E86CDA0" Ref="Q?"  Part="1" 
F 0 "Q2" H 4844 9604 50  0000 L CNN
F 1 "MMSS8050-H-TP" H 4844 9695 50  0000 L CNN
F 2 "MMSS8050:TRANS_MMSS8050-H-TP" H 4700 9650 50  0001 L BNN
F 3 "1.22mm" H 4700 9650 50  0001 L BNN
F 4 "D" H 4700 9650 50  0001 L BNN "Field4"
F 5 "MCC" H 4700 9650 50  0001 L BNN "Field5"
F 6 "Manufacturer recommendations" H 4700 9650 50  0001 L BNN "Field6"
	1    4700 9650
	1    0    0    1   
$EndComp
Wire Wire Line
	4600 8900 4100 8900
$Comp
L Device:R R114
U 1 1 5E8779D7
P 3950 9650
AR Path="/5E837FB0/5E8779D7" Ref="R114"  Part="1" 
AR Path="/5F110777/5E8779D7" Ref="R?"  Part="1" 
F 0 "R114" V 3900 9450 50  0000 C CNN
F 1 "10K(1%)" V 3900 9950 50  0000 C CNN
F 2 "Resistor_SMD:R_0805_2012Metric_Pad1.15x1.40mm_HandSolder" V 3880 9650 50  0001 C CNN
F 3 "~" H 3950 9650 50  0001 C CNN
	1    3950 9650
	0    1    1    0   
$EndComp
$Comp
L Device:R R115
U 1 1 5E877C57
P 3950 10400
AR Path="/5E837FB0/5E877C57" Ref="R115"  Part="1" 
AR Path="/5F110777/5E877C57" Ref="R?"  Part="1" 
F 0 "R115" V 3900 10200 50  0000 C CNN
F 1 "10K(1%)" V 3900 10700 50  0000 C CNN
F 2 "Resistor_SMD:R_0805_2012Metric_Pad1.15x1.40mm_HandSolder" V 3880 10400 50  0001 C CNN
F 3 "~" H 3950 10400 50  0001 C CNN
	1    3950 10400
	0    1    1    0   
$EndComp
Wire Wire Line
	4100 9650 4600 9650
Wire Wire Line
	4100 10400 4600 10400
Wire Wire Line
	4800 8700 4800 8500
Wire Wire Line
	4800 8500 5200 8500
Text Label 5200 8500 2    50   ~ 0
EN_AUTO
Wire Wire Line
	3450 9650 3800 9650
Wire Wire Line
	4800 9100 4800 9200
Wire Wire Line
	4800 9200 3450 9200
Wire Wire Line
	3450 9200 3450 9650
Wire Wire Line
	3450 9650 3450 10400
Wire Wire Line
	3450 10400 3800 10400
Connection ~ 3450 9650
Wire Wire Line
	4800 9450 4800 9350
Wire Wire Line
	4800 9350 4450 9350
Wire Wire Line
	3550 9350 3550 8900
Wire Wire Line
	3550 8900 3800 8900
Wire Wire Line
	3550 8900 3050 8900
Connection ~ 3550 8900
Wire Wire Line
	3450 9650 3050 9650
Wire Wire Line
	4800 10200 4800 10100
Wire Wire Line
	4800 10100 4450 10100
Wire Wire Line
	4450 10100 4450 9350
Connection ~ 4450 9350
Wire Wire Line
	4450 9350 3550 9350
Wire Wire Line
	4800 9850 4800 9950
Wire Wire Line
	4800 9950 5200 9950
Wire Wire Line
	4800 10700 5200 10700
Wire Wire Line
	4800 10600 4800 10700
Text Label 5200 9950 2    50   ~ 0
IO0_AUTO
Text Label 5200 10700 2    50   ~ 0
IO2_AUTO
Text Label 3050 8900 0    50   ~ 0
DTR
Text Label 3050 9650 0    50   ~ 0
RTS
Text Notes 6550 9400 0    59   ~ 0
                AUTO PROGRAM\nDTR   RTS-->   EN_AUTO   IO0AUTO   IO2AUTO\n 1      1            1          1          1\n 0      0            1          1          1\n 1      0            0          1          1\n 0      1            1          0          0
$Comp
L Connector_Generic:Conn_01x02 J26
U 1 1 5E90DA45
P 6200 10600
AR Path="/5E837FB0/5E90DA45" Ref="J26"  Part="1" 
AR Path="/5F110777/5E90DA45" Ref="J?"  Part="1" 
F 0 "J26" H 6150 10750 50  0000 L CNN
F 1 "IO2_AUTO" H 5900 10400 50  0000 L CNN
F 2 "Connector_PinHeader_2.54mm:PinHeader_1x02_P2.54mm_Vertical" H 6200 10600 50  0001 C CNN
F 3 "~" H 6200 10600 50  0001 C CNN
	1    6200 10600
	1    0    0    -1  
$EndComp
$Comp
L Connector_Generic:Conn_01x02 J25
U 1 1 5E90FD69
P 6200 9850
AR Path="/5E837FB0/5E90FD69" Ref="J25"  Part="1" 
AR Path="/5F110777/5E90FD69" Ref="J?"  Part="1" 
F 0 "J25" H 6150 10000 50  0000 L CNN
F 1 "IO0_AUTO" H 5900 9650 50  0000 L CNN
F 2 "Connector_PinHeader_2.54mm:PinHeader_1x02_P2.54mm_Vertical" H 6200 9850 50  0001 C CNN
F 3 "~" H 6200 9850 50  0001 C CNN
	1    6200 9850
	1    0    0    -1  
$EndComp
$Comp
L Connector_Generic:Conn_01x02 J24
U 1 1 5E910215
P 6200 8400
AR Path="/5E837FB0/5E910215" Ref="J24"  Part="1" 
AR Path="/5F110777/5E910215" Ref="J?"  Part="1" 
F 0 "J24" H 6150 8550 50  0000 L CNN
F 1 "EN_AUTO" H 5900 8200 50  0000 L CNN
F 2 "Connector_PinHeader_2.54mm:PinHeader_1x02_P2.54mm_Vertical" H 6200 8400 50  0001 C CNN
F 3 "~" H 6200 8400 50  0001 C CNN
	1    6200 8400
	1    0    0    -1  
$EndComp
Wire Wire Line
	6000 8500 5600 8500
Wire Wire Line
	6000 8400 5600 8400
Wire Wire Line
	6000 9850 5600 9850
Wire Wire Line
	5600 9950 6000 9950
Wire Wire Line
	6000 10600 5600 10600
Wire Wire Line
	5600 10700 6000 10700
Text Label 5600 8500 0    50   ~ 0
EN_AUTO
Text Label 5600 9950 0    50   ~ 0
IO0_AUTO
Text Label 5600 10700 0    50   ~ 0
IO2_AUTO
Text Label 5600 9850 0    50   ~ 0
IO0
Text Label 5600 8400 0    50   ~ 0
EN
Text Label 5600 10600 0    50   ~ 0
IO2
$Comp
L Connector_Generic:Conn_01x04 J29
U 1 1 5EAA721D
P 10750 3950
AR Path="/5E837FB0/5EAA721D" Ref="J29"  Part="1" 
AR Path="/5F110777/5EAA721D" Ref="J?"  Part="1" 
F 0 "J29" H 10668 3525 50  0000 C CNN
F 1 "ESP_UART0" H 10668 3616 50  0000 C CNN
F 2 "Connector_PinHeader_2.54mm:PinHeader_1x04_P2.54mm_Vertical" H 10750 3950 50  0001 C CNN
F 3 "~" H 10750 3950 50  0001 C CNN
	1    10750 3950
	-1   0    0    1   
$EndComp
Wire Wire Line
	10950 3750 11700 3750
Wire Wire Line
	10950 4050 11700 4050
$Comp
L Device:C C32
U 1 1 5EAC1E4F
P 11700 3900
AR Path="/5E837FB0/5EAC1E4F" Ref="C32"  Part="1" 
AR Path="/5F110777/5EAC1E4F" Ref="C?"  Part="1" 
F 0 "C32" H 11815 3946 50  0000 L CNN
F 1 "0.1uF/16V(10%)" H 11815 3855 50  0000 L CNN
F 2 "Capacitor_SMD:C_0805_2012Metric_Pad1.15x1.40mm_HandSolder" H 11738 3750 50  0001 C CNN
F 3 "~" H 11700 3900 50  0001 C CNN
	1    11700 3900
	1    0    0    -1  
$EndComp
$Comp
L power:GND #PWR0126
U 1 1 5EAC2B76
P 11700 4150
AR Path="/5E837FB0/5EAC2B76" Ref="#PWR0126"  Part="1" 
AR Path="/5F110777/5EAC2B76" Ref="#PWR?"  Part="1" 
F 0 "#PWR0126" H 11700 3900 50  0001 C CNN
F 1 "GND" H 11705 3977 50  0000 C CNN
F 2 "" H 11700 4150 50  0001 C CNN
F 3 "" H 11700 4150 50  0001 C CNN
	1    11700 4150
	1    0    0    -1  
$EndComp
Wire Wire Line
	11700 4050 11700 4150
Connection ~ 11700 4050
Text Label 11450 3850 2    50   ~ 0
TXD0
Text Label 11450 3950 2    50   ~ 0
RXD0
$Comp
L Device:LED D3
U 1 1 5EB01182
P 13850 8850
AR Path="/5E837FB0/5EB01182" Ref="D3"  Part="1" 
AR Path="/5F110777/5EB01182" Ref="D?"  Part="1" 
F 0 "D3" H 13850 9050 50  0000 C CNN
F 1 "D1_BLK" H 13800 8950 50  0000 C CNN
F 2 "LED_SMD:LED_0805_2012Metric" H 13850 8850 50  0001 C CNN
F 3 "~" H 13850 8850 50  0001 C CNN
	1    13850 8850
	-1   0    0    1   
$EndComp
$Comp
L Device:R R127
U 1 1 5EB01188
P 13550 8850
AR Path="/5E837FB0/5EB01188" Ref="R127"  Part="1" 
AR Path="/5F110777/5EB01188" Ref="R?"  Part="1" 
F 0 "R127" V 13350 8850 50  0000 C CNN
F 1 "2K(1%)" V 13450 8850 50  0000 C CNN
F 2 "Resistor_SMD:R_0805_2012Metric_Pad1.15x1.40mm_HandSolder" V 13480 8850 50  0001 C CNN
F 3 "~" H 13550 8850 50  0001 C CNN
	1    13550 8850
	0    -1   -1   0   
$EndComp
$Comp
L power:GND #PWR0132
U 1 1 5EB0118E
P 14200 9000
AR Path="/5E837FB0/5EB0118E" Ref="#PWR0132"  Part="1" 
AR Path="/5F110777/5EB0118E" Ref="#PWR?"  Part="1" 
F 0 "#PWR0132" H 14200 8750 50  0001 C CNN
F 1 "GND" H 14205 8827 50  0000 C CNN
F 2 "" H 14200 9000 50  0001 C CNN
F 3 "" H 14200 9000 50  0001 C CNN
	1    14200 9000
	1    0    0    -1  
$EndComp
Wire Wire Line
	13400 8850 13000 8850
Wire Wire Line
	14200 9000 14200 8850
Wire Wire Line
	14200 8850 14000 8850
Text Label 13000 8850 0    50   ~ 0
IO4
$Comp
L power:GND #PWR0131
U 1 1 5EB62D0F
P 14150 6800
AR Path="/5E837FB0/5EB62D0F" Ref="#PWR0131"  Part="1" 
AR Path="/5F110777/5EB62D0F" Ref="#PWR?"  Part="1" 
F 0 "#PWR0131" H 14150 6550 50  0001 C CNN
F 1 "GND" H 14155 6627 50  0000 C CNN
F 2 "" H 14150 6800 50  0001 C CNN
F 3 "" H 14150 6800 50  0001 C CNN
	1    14150 6800
	1    0    0    -1  
$EndComp
Wire Wire Line
	13400 6600 14150 6600
Wire Wire Line
	13400 6500 14150 6500
Wire Wire Line
	14150 6800 14150 6700
Wire Wire Line
	13400 6700 14150 6700
$Comp
L PUSH-BTN:4-1437565-2 SW6
U 1 1 5EBAFCA6
P 12750 1500
AR Path="/5E837FB0/5EBAFCA6" Ref="SW6"  Part="1" 
AR Path="/5F110777/5EBAFCA6" Ref="SW?"  Part="1" 
F 0 "SW6" H 12750 1815 50  0000 C CNN
F 1 "ESP_PROG" H 12750 1724 50  0000 C CNN
F 2 "SW-4-BTN:SW_4-1437565-2" H 12750 1500 50  0001 L BNN
F 3 "https://www.te.com/usa-en/product-4-1437565-2.html?te_bu=Cor&te_type=disp&te_campaign=seda_glo_cor-seda-global-disp-prtnr-fy19-seda-model-bom-cta_sma-317_1&elqCampaignId=32493" H 12750 1500 50  0001 L BNN
F 4 "4-1437565-2" H 12750 1500 50  0001 L BNN "Field4"
	1    12750 1500
	1    0    0    -1  
$EndComp
Wire Wire Line
	12500 1600 12300 1600
Wire Wire Line
	12300 1600 12300 1400
Connection ~ 12300 1400
Wire Wire Line
	12300 1400 12500 1400
Wire Wire Line
	13000 1400 13200 1400
$Comp
L Device:R R128
U 1 1 5EBEC144
P 13850 1400
AR Path="/5E837FB0/5EBEC144" Ref="R128"  Part="1" 
AR Path="/5F110777/5EBEC144" Ref="R?"  Part="1" 
F 0 "R128" V 14057 1400 50  0000 C CNN
F 1 "1K(1%)" V 13966 1400 50  0000 C CNN
F 2 "Resistor_SMD:R_0805_2012Metric_Pad1.15x1.40mm_HandSolder" V 13780 1400 50  0001 C CNN
F 3 "~" H 13850 1400 50  0001 C CNN
	1    13850 1400
	0    -1   -1   0   
$EndComp
$Comp
L Device:C C33
U 1 1 5EC09DCA
P 13500 1850
AR Path="/5E837FB0/5EC09DCA" Ref="C33"  Part="1" 
AR Path="/5F110777/5EC09DCA" Ref="C?"  Part="1" 
F 0 "C33" H 13400 1950 50  0000 L CNN
F 1 "0.1uF/16V(10%)" V 13600 1400 50  0000 L CNN
F 2 "Capacitor_SMD:C_0805_2012Metric_Pad1.15x1.40mm_HandSolder" H 13538 1700 50  0001 C CNN
F 3 "~" H 13500 1850 50  0001 C CNN
	1    13500 1850
	1    0    0    -1  
$EndComp
$Comp
L power:GND #PWR0128
U 1 1 5EC0A168
P 13350 2200
AR Path="/5E837FB0/5EC0A168" Ref="#PWR0128"  Part="1" 
AR Path="/5F110777/5EC0A168" Ref="#PWR?"  Part="1" 
F 0 "#PWR0128" H 13350 1950 50  0001 C CNN
F 1 "GND" H 13355 2027 50  0000 C CNN
F 2 "" H 13350 2200 50  0001 C CNN
F 3 "" H 13350 2200 50  0001 C CNN
	1    13350 2200
	1    0    0    -1  
$EndComp
Wire Wire Line
	13200 2000 13200 2100
Wire Wire Line
	13200 2100 13350 2100
Wire Wire Line
	13500 2100 13500 2000
Wire Wire Line
	13350 2100 13350 2200
Connection ~ 13350 2100
Wire Wire Line
	13350 2100 13500 2100
Wire Wire Line
	13200 1700 13200 1600
Wire Wire Line
	13200 1600 13000 1600
Wire Wire Line
	13500 1700 13500 1600
Wire Wire Line
	13500 1600 13200 1600
Connection ~ 13200 1600
Wire Wire Line
	13200 1600 13200 1400
Connection ~ 13200 1400
Wire Wire Line
	13200 1400 13700 1400
$Comp
L Device:R R129
U 1 1 5EC6512B
P 13850 1600
AR Path="/5E837FB0/5EC6512B" Ref="R129"  Part="1" 
AR Path="/5F110777/5EC6512B" Ref="R?"  Part="1" 
F 0 "R129" V 13650 1600 50  0000 C CNN
F 1 "1K(1%)" V 13750 1600 50  0000 C CNN
F 2 "Resistor_SMD:R_0805_2012Metric_Pad1.15x1.40mm_HandSolder" V 13780 1600 50  0001 C CNN
F 3 "~" H 13850 1600 50  0001 C CNN
	1    13850 1600
	0    -1   -1   0   
$EndComp
Wire Wire Line
	13700 1600 13500 1600
Connection ~ 13500 1600
$Comp
L Transistor_FET:BSS138 Q4
U 1 1 5EC764A3
P 14450 1400
AR Path="/5E837FB0/5EC764A3" Ref="Q4"  Part="1" 
AR Path="/5F110777/5EC764A3" Ref="Q?"  Part="1" 
F 0 "Q4" H 14654 1446 50  0000 L CNN
F 1 "BSS138" H 14654 1355 50  0000 L CNN
F 2 "Package_TO_SOT_SMD:SOT-23" H 14650 1325 50  0001 L CIN
F 3 "https://www.fairchildsemi.com/datasheets/BS/BSS138.pdf" H 14450 1400 50  0001 L CNN
	1    14450 1400
	1    0    0    -1  
$EndComp
$Comp
L Transistor_FET:BSS138 Q5
U 1 1 5EC7A9EE
P 14450 2250
AR Path="/5E837FB0/5EC7A9EE" Ref="Q5"  Part="1" 
AR Path="/5F110777/5EC7A9EE" Ref="Q?"  Part="1" 
F 0 "Q5" H 14654 2296 50  0000 L CNN
F 1 "BSS138" H 14654 2205 50  0000 L CNN
F 2 "Package_TO_SOT_SMD:SOT-23" H 14650 2175 50  0001 L CIN
F 3 "https://www.fairchildsemi.com/datasheets/BS/BSS138.pdf" H 14450 2250 50  0001 L CNN
	1    14450 2250
	1    0    0    -1  
$EndComp
Wire Wire Line
	14250 2250 14150 2250
Wire Wire Line
	14150 2250 14150 1600
Wire Wire Line
	14150 1600 14000 1600
Wire Wire Line
	14000 1400 14250 1400
$Comp
L power:GND #PWR0133
U 1 1 5EC9F4F2
P 14550 1700
AR Path="/5E837FB0/5EC9F4F2" Ref="#PWR0133"  Part="1" 
AR Path="/5F110777/5EC9F4F2" Ref="#PWR?"  Part="1" 
F 0 "#PWR0133" H 14550 1450 50  0001 C CNN
F 1 "GND" H 14555 1527 50  0000 C CNN
F 2 "" H 14550 1700 50  0001 C CNN
F 3 "" H 14550 1700 50  0001 C CNN
	1    14550 1700
	1    0    0    -1  
$EndComp
Wire Wire Line
	14550 1700 14550 1600
$Comp
L power:GND #PWR0134
U 1 1 5ECAFB68
P 14550 2550
AR Path="/5E837FB0/5ECAFB68" Ref="#PWR0134"  Part="1" 
AR Path="/5F110777/5ECAFB68" Ref="#PWR?"  Part="1" 
F 0 "#PWR0134" H 14550 2300 50  0001 C CNN
F 1 "GND" H 14555 2377 50  0000 C CNN
F 2 "" H 14550 2550 50  0001 C CNN
F 3 "" H 14550 2550 50  0001 C CNN
	1    14550 2550
	1    0    0    -1  
$EndComp
Wire Wire Line
	14550 2550 14550 2450
$Comp
L Device:R R132
U 1 1 5ECC0244
P 15000 1100
AR Path="/5E837FB0/5ECC0244" Ref="R132"  Part="1" 
AR Path="/5F110777/5ECC0244" Ref="R?"  Part="1" 
F 0 "R132" V 15100 1100 50  0000 C CNN
F 1 "0R(1%)" V 14900 1100 50  0000 C CNN
F 2 "Resistor_SMD:R_0805_2012Metric_Pad1.15x1.40mm_HandSolder" V 14930 1100 50  0001 C CNN
F 3 "~" H 15000 1100 50  0001 C CNN
	1    15000 1100
	0    -1   -1   0   
$EndComp
$Comp
L Device:R R133
U 1 1 5ECC090D
P 15000 1950
AR Path="/5E837FB0/5ECC090D" Ref="R133"  Part="1" 
AR Path="/5F110777/5ECC090D" Ref="R?"  Part="1" 
F 0 "R133" V 15100 1950 50  0000 C CNN
F 1 "0R(1%)" V 14900 1950 50  0000 C CNN
F 2 "Resistor_SMD:R_0805_2012Metric_Pad1.15x1.40mm_HandSolder" V 14930 1950 50  0001 C CNN
F 3 "~" H 15000 1950 50  0001 C CNN
	1    15000 1950
	0    -1   -1   0   
$EndComp
Wire Wire Line
	14850 1950 14550 1950
Wire Wire Line
	14550 1950 14550 2050
Wire Wire Line
	14550 1200 14550 1100
Wire Wire Line
	14550 1100 14850 1100
Wire Wire Line
	15150 1100 15500 1100
Wire Wire Line
	15150 1950 15500 1950
Text Label 15500 1100 2    50   ~ 0
IO0
Text Label 15500 1950 2    50   ~ 0
IO2
Wire Wire Line
	11850 1400 12300 1400
$Comp
L Device:R R126
U 1 1 5EC08B87
P 13200 1850
AR Path="/5E837FB0/5EC08B87" Ref="R126"  Part="1" 
AR Path="/5F110777/5EC08B87" Ref="R?"  Part="1" 
F 0 "R126" H 13250 1950 50  0000 L CNN
F 1 "10K(1%)" V 13100 1700 50  0000 L CNN
F 2 "Resistor_SMD:R_0805_2012Metric_Pad1.15x1.40mm_HandSolder" V 13130 1850 50  0001 C CNN
F 3 "~" H 13200 1850 50  0001 C CNN
	1    13200 1850
	1    0    0    -1  
$EndComp
$Comp
L PUSH-BTN:4-1437565-2 SW3
U 1 1 5ED394A4
P 10100 1500
AR Path="/5E837FB0/5ED394A4" Ref="SW3"  Part="1" 
AR Path="/5F110777/5ED394A4" Ref="SW?"  Part="1" 
F 0 "SW3" H 10100 1815 50  0000 C CNN
F 1 "ESP_RST" H 10100 1724 50  0000 C CNN
F 2 "SW-4-BTN:SW_4-1437565-2" H 10100 1500 50  0001 L BNN
F 3 "https://www.te.com/usa-en/product-4-1437565-2.html?te_bu=Cor&te_type=disp&te_campaign=seda_glo_cor-seda-global-disp-prtnr-fy19-seda-model-bom-cta_sma-317_1&elqCampaignId=32493" H 10100 1500 50  0001 L BNN
F 4 "4-1437565-2" H 10100 1500 50  0001 L BNN "Field4"
	1    10100 1500
	1    0    0    -1  
$EndComp
$Comp
L power:GND #PWR0118
U 1 1 5ED3A7B8
P 9650 1950
AR Path="/5E837FB0/5ED3A7B8" Ref="#PWR0118"  Part="1" 
AR Path="/5F110777/5ED3A7B8" Ref="#PWR?"  Part="1" 
F 0 "#PWR0118" H 9650 1700 50  0001 C CNN
F 1 "GND" H 9655 1777 50  0000 C CNN
F 2 "" H 9650 1950 50  0001 C CNN
F 3 "" H 9650 1950 50  0001 C CNN
	1    9650 1950
	1    0    0    -1  
$EndComp
Wire Wire Line
	9850 1600 9650 1600
Wire Wire Line
	9850 1400 9650 1400
Wire Wire Line
	9650 1400 9650 1600
Connection ~ 9650 1600
Wire Wire Line
	10350 1400 10500 1400
$Comp
L Device:R R121
U 1 1 5ED6F09E
P 10800 1400
AR Path="/5E837FB0/5ED6F09E" Ref="R121"  Part="1" 
AR Path="/5F110777/5ED6F09E" Ref="R?"  Part="1" 
F 0 "R121" V 10900 1400 50  0000 C CNN
F 1 "0R(1%)" V 10700 1400 50  0000 C CNN
F 2 "Resistor_SMD:R_0805_2012Metric_Pad1.15x1.40mm_HandSolder" V 10730 1400 50  0001 C CNN
F 3 "~" H 10800 1400 50  0001 C CNN
	1    10800 1400
	0    -1   -1   0   
$EndComp
Wire Wire Line
	10350 1600 10500 1600
Wire Wire Line
	10500 1600 10500 1400
Connection ~ 10500 1400
Wire Wire Line
	10500 1400 10650 1400
$Comp
L Device:C C29
U 1 1 5ED81264
P 10100 1850
AR Path="/5E837FB0/5ED81264" Ref="C29"  Part="1" 
AR Path="/5F110777/5ED81264" Ref="C?"  Part="1" 
F 0 "C29" V 10000 1950 50  0000 L CNN
F 1 "0.1uF/16V(10%)" V 10250 1550 50  0000 L CNN
F 2 "Capacitor_SMD:C_0805_2012Metric_Pad1.15x1.40mm_HandSolder" H 10138 1700 50  0001 C CNN
F 3 "~" H 10100 1850 50  0001 C CNN
	1    10100 1850
	0    1    1    0   
$EndComp
Wire Wire Line
	9650 1600 9650 1850
Wire Wire Line
	9950 1850 9650 1850
Connection ~ 9650 1850
Wire Wire Line
	9650 1850 9650 1950
Wire Wire Line
	10250 1850 10500 1850
Wire Wire Line
	10500 1850 10500 1600
Connection ~ 10500 1600
Wire Wire Line
	10950 1400 11350 1400
Text Label 11350 1400 2    50   ~ 0
EN
Wire Notes Line
	500  4000 9000 4000
Text Notes 550  750  0    118  ~ 24
ESP32-Module:
Wire Notes Line
	500  500  500  11200
Text Notes 600  4250 0    118  ~ 24
USB-SERIAL:
Text Notes 600  8250 0    118  ~ 24
Autoprogram:
Wire Notes Line
	9000 500  9000 11200
Wire Notes Line
	16000 3100 9000 3100
Wire Notes Line
	500  500  16000 500 
Text Notes 9100 800  0    118  ~ 24
Reset/Download Button:
Text Notes 9100 3350 0    118  ~ 24
UARTs:
$Comp
L Connector:TestPoint TP3
U 1 1 5ED94DC4
P 9850 3800
AR Path="/5E837FB0/5ED94DC4" Ref="TP3"  Part="1" 
AR Path="/5F110777/5ED94DC4" Ref="TP?"  Part="1" 
F 0 "TP3" V 9804 3988 50  0000 L CNN
F 1 "RXD0" V 9895 3988 50  0000 L CNN
F 2 "TestPoint:TestPoint_Pad_D2.0mm" H 10050 3800 50  0001 C CNN
F 3 "~" H 10050 3800 50  0001 C CNN
	1    9850 3800
	0    1    1    0   
$EndComp
$Comp
L Connector:TestPoint TP4
U 1 1 5ED94DCA
P 9850 4000
AR Path="/5E837FB0/5ED94DCA" Ref="TP4"  Part="1" 
AR Path="/5F110777/5ED94DCA" Ref="TP?"  Part="1" 
F 0 "TP4" V 9804 4188 50  0000 L CNN
F 1 "TXD0" V 9895 4188 50  0000 L CNN
F 2 "TestPoint:TestPoint_Pad_D2.0mm" H 10050 4000 50  0001 C CNN
F 3 "~" H 10050 4000 50  0001 C CNN
	1    9850 4000
	0    1    1    0   
$EndComp
Text Label 9400 3800 0    50   ~ 0
RXD0
Text Label 9400 4000 0    50   ~ 0
TXD0
Wire Wire Line
	9400 3800 9850 3800
Wire Wire Line
	9400 4000 9850 4000
Text Label 10700 4650 0    50   ~ 0
IO22
Text Label 10700 4850 0    50   ~ 0
IO21
Text HLabel 11200 4650 2    50   Input ~ 0
ESP_RXD1
Text HLabel 11200 4850 2    50   Input ~ 0
ESP_TXD1
Text Notes 12600 3350 0    118  ~ 24
JTAG/BitBang:
Wire Wire Line
	10500 1850 11000 1850
Connection ~ 10500 1850
Text Label 11000 1850 2    50   ~ 0
ESP_RST
Text Label 13550 5750 0    50   ~ 0
IO27
Text Label 13550 5650 0    50   ~ 0
IO26
Wire Wire Line
	14550 5750 13550 5750
Wire Wire Line
	14550 5650 13550 5650
Text HLabel 14550 5750 2    50   Input ~ 0
ESP_NJRST_O
Text HLabel 14550 5650 2    50   Input ~ 0
ESP_NRST_O
Text Label 14975 4825 2    50   ~ 0
IO12
Text Label 13375 4725 0    50   ~ 0
IO15
Text HLabel 13375 4825 0    50   Input ~ 0
ESP_MTDI
Text HLabel 14975 4725 2    50   Input ~ 0
ESP_MTDO
Text Label 13550 5500 0    50   ~ 0
IO14
Text Label 13550 5400 0    50   ~ 0
IO13
Wire Wire Line
	13550 5500 14550 5500
Wire Wire Line
	13550 5400 14550 5400
Text HLabel 14550 5500 2    50   Input ~ 0
ESP_MTMS
Text HLabel 14550 5400 2    50   Input ~ 0
ESP_MTCK
$Comp
L Connector_Generic:Conn_01x07 J31
U 1 1 5F07E879
P 14550 3900
AR Path="/5E837FB0/5F07E879" Ref="J31"  Part="1" 
AR Path="/5F110777/5F07E879" Ref="J?"  Part="1" 
F 0 "J31" H 14750 3850 50  0000 C CNN
F 1 "JTAG_EXT" H 14850 4000 50  0000 C CNN
F 2 "Connector_PinHeader_2.54mm:PinHeader_1x07_P2.54mm_Vertical" H 14550 3900 50  0001 C CNN
F 3 "~" H 14550 3900 50  0001 C CNN
	1    14550 3900
	1    0    0    -1  
$EndComp
Wire Wire Line
	14350 4200 13850 4200
Wire Wire Line
	13850 4100 14350 4100
Wire Wire Line
	13850 4000 14350 4000
Wire Wire Line
	13850 3900 14350 3900
Wire Wire Line
	13850 3800 14350 3800
Wire Wire Line
	13850 3700 14350 3700
Wire Wire Line
	13850 3600 14350 3600
Text Label 13850 4200 0    50   ~ 0
ESP_RST
Text Label 14000 5400 0    50   ~ 0
TCK
Text Label 14000 5500 0    50   ~ 0
TMS
Text Label 13850 3600 0    50   ~ 0
TCK
Text Label 13850 3700 0    50   ~ 0
TMS
Text Label 14650 4825 2    50   ~ 0
TDI
Text Label 13625 4825 0    50   ~ 0
TDO
Text Label 13850 3800 0    50   ~ 0
TDI
Text Label 13850 3900 0    50   ~ 0
TDO
Text Label 13850 4000 0    50   ~ 0
nJRST
Text Label 13850 4100 0    50   ~ 0
nTRST
Text Label 14000 5650 0    50   ~ 0
nTRST
Text Label 14000 5750 0    50   ~ 0
nJRST
Text Notes 12600 6350 0    118  ~ 24
I2C:
Text Label 15050 7800 0    50   ~ 0
IO33
Text Label 13300 7800 0    50   ~ 0
IO32
Text Label 14900 7800 2    50   ~ 0
SDA_BUS
Text Label 13600 7800 0    50   ~ 0
SCL_BUS
$Comp
L Device:R R?
U 1 1 5F1388E7
P 14500 7550
AR Path="/5E837FFA/5F1388E7" Ref="R?"  Part="1" 
AR Path="/5E837FB0/5EEEFE4C/5F1388E7" Ref="R?"  Part="1" 
AR Path="/5E837FB0/5F1388E7" Ref="R131"  Part="1" 
F 0 "R131" H 14570 7596 50  0000 L CNN
F 1 "4.7K(%5)" H 14570 7505 50  0000 L CNN
F 2 "Resistor_SMD:R_0805_2012Metric_Pad1.15x1.40mm_HandSolder" V 14430 7550 50  0001 C CNN
F 3 "~" H 14500 7550 50  0001 C CNN
	1    14500 7550
	1    0    0    -1  
$EndComp
$Comp
L Device:R R?
U 1 1 5F1388ED
P 14000 7550
AR Path="/5E837FFA/5F1388ED" Ref="R?"  Part="1" 
AR Path="/5E837FB0/5EEEFE4C/5F1388ED" Ref="R?"  Part="1" 
AR Path="/5E837FB0/5F1388ED" Ref="R130"  Part="1" 
F 0 "R130" H 14070 7596 50  0000 L CNN
F 1 "4.7K(5%)" H 14070 7505 50  0000 L CNN
F 2 "Resistor_SMD:R_0805_2012Metric_Pad1.15x1.40mm_HandSolder" V 13930 7550 50  0001 C CNN
F 3 "~" H 14000 7550 50  0001 C CNN
	1    14000 7550
	1    0    0    -1  
$EndComp
Wire Wire Line
	14000 7400 14000 7300
Wire Wire Line
	14000 7300 14500 7300
Wire Wire Line
	14500 7300 14500 7400
Wire Wire Line
	14000 7300 13500 7300
Connection ~ 14000 7300
Wire Wire Line
	14000 7700 14000 7800
Wire Wire Line
	14500 7700 14500 7800
Wire Wire Line
	14500 7800 15300 7800
Wire Wire Line
	13250 7800 14000 7800
Text HLabel 15300 7800 2    50   Input ~ 0
I2C_SDA
Text HLabel 13250 7800 0    50   Input ~ 0
I2C_SCL
$Comp
L Connector_Generic:Conn_01x06 J27
U 1 1 5E9C5BC0
P 9800 6050
F 0 "J27" H 9718 5525 50  0000 C CNN
F 1 "SPI_BUS" H 9718 5616 50  0000 C CNN
F 2 "Connector_PinHeader_2.54mm:PinHeader_1x06_P2.54mm_Vertical" H 9800 6050 50  0001 C CNN
F 3 "~" H 9800 6050 50  0001 C CNN
	1    9800 6050
	-1   0    0    1   
$EndComp
Text Label 10500 5750 2    50   ~ 0
VSPI_MOSI
Text Label 10500 5850 2    50   ~ 0
VSPI_MISO
Text Label 10500 5950 2    50   ~ 0
VSPI_CLK
Text Label 10500 6050 2    50   ~ 0
VSPI_CS0
Text Label 10500 6150 2    50   ~ 0
VSPI_CS1
Text Label 10500 6250 2    50   ~ 0
VSPI_CS2
Text Label 10950 5950 2    50   ~ 0
IO18
Text Label 10950 5850 2    50   ~ 0
IO19
Text Label 10950 5750 2    50   ~ 0
IO23
Text Label 10950 6050 2    50   ~ 0
IO5
Wire Wire Line
	11250 5750 10000 5750
Wire Wire Line
	11250 5850 10000 5850
Wire Wire Line
	11250 5950 10000 5950
Wire Wire Line
	11250 6050 10000 6050
Wire Wire Line
	11250 6150 10000 6150
Wire Wire Line
	11250 6250 10000 6250
$Comp
L Device:LED D4
U 1 1 5EB5A00E
P 15350 8850
AR Path="/5E837FB0/5EB5A00E" Ref="D4"  Part="1" 
AR Path="/5F110777/5EB5A00E" Ref="D?"  Part="1" 
F 0 "D4" H 15350 9050 50  0000 C CNN
F 1 "D2_BLK" H 15300 8950 50  0000 C CNN
F 2 "LED_SMD:LED_0805_2012Metric" H 15350 8850 50  0001 C CNN
F 3 "~" H 15350 8850 50  0001 C CNN
	1    15350 8850
	-1   0    0    1   
$EndComp
$Comp
L Device:R R134
U 1 1 5EB5A014
P 15050 8850
AR Path="/5E837FB0/5EB5A014" Ref="R134"  Part="1" 
AR Path="/5F110777/5EB5A014" Ref="R?"  Part="1" 
F 0 "R134" V 14850 8850 50  0000 C CNN
F 1 "2K(1%)" V 14950 8850 50  0000 C CNN
F 2 "Resistor_SMD:R_0805_2012Metric_Pad1.15x1.40mm_HandSolder" V 14980 8850 50  0001 C CNN
F 3 "~" H 15050 8850 50  0001 C CNN
	1    15050 8850
	0    -1   -1   0   
$EndComp
$Comp
L power:GND #PWR0137
U 1 1 5EB5A01A
P 15700 9000
AR Path="/5E837FB0/5EB5A01A" Ref="#PWR0137"  Part="1" 
AR Path="/5F110777/5EB5A01A" Ref="#PWR?"  Part="1" 
F 0 "#PWR0137" H 15700 8750 50  0001 C CNN
F 1 "GND" H 15705 8827 50  0000 C CNN
F 2 "" H 15700 9000 50  0001 C CNN
F 3 "" H 15700 9000 50  0001 C CNN
	1    15700 9000
	1    0    0    -1  
$EndComp
Wire Wire Line
	14900 8850 14500 8850
Wire Wire Line
	15700 9000 15700 8850
Wire Wire Line
	15700 8850 15500 8850
Text Label 14500 8850 0    50   ~ 0
IO25
$Comp
L PUSH-BTN:4-1437565-2 SW5
U 1 1 5EB81EA0
P 10450 8900
AR Path="/5E837FB0/5EB81EA0" Ref="SW5"  Part="1" 
AR Path="/5F110777/5EB81EA0" Ref="SW?"  Part="1" 
F 0 "SW5" H 10450 9215 50  0000 C CNN
F 1 "BTN_1" H 10450 9124 50  0000 C CNN
F 2 "SW-4-BTN:SW_4-1437565-2" H 10450 8900 50  0001 L BNN
F 3 "https://www.te.com/usa-en/product-4-1437565-2.html?te_bu=Cor&te_type=disp&te_campaign=seda_glo_cor-seda-global-disp-prtnr-fy19-seda-model-bom-cta_sma-317_1&elqCampaignId=32493" H 10450 8900 50  0001 L BNN
F 4 "4-1437565-2" H 10450 8900 50  0001 L BNN "Field4"
	1    10450 8900
	1    0    0    -1  
$EndComp
$Comp
L power:GND #PWR0120
U 1 1 5EB81EA6
P 10000 9350
AR Path="/5E837FB0/5EB81EA6" Ref="#PWR0120"  Part="1" 
AR Path="/5F110777/5EB81EA6" Ref="#PWR?"  Part="1" 
F 0 "#PWR0120" H 10000 9100 50  0001 C CNN
F 1 "GND" H 10005 9177 50  0000 C CNN
F 2 "" H 10000 9350 50  0001 C CNN
F 3 "" H 10000 9350 50  0001 C CNN
	1    10000 9350
	1    0    0    -1  
$EndComp
Wire Wire Line
	10200 9000 10000 9000
Wire Wire Line
	10200 8800 10000 8800
Wire Wire Line
	10000 8800 10000 9000
Connection ~ 10000 9000
Wire Wire Line
	10700 8800 10850 8800
$Comp
L Device:R R125
U 1 1 5EB81EB1
P 11150 8800
AR Path="/5E837FB0/5EB81EB1" Ref="R125"  Part="1" 
AR Path="/5F110777/5EB81EB1" Ref="R?"  Part="1" 
F 0 "R125" V 10950 8800 50  0000 C CNN
F 1 "100(1%)" V 11050 8800 50  0000 C CNN
F 2 "Resistor_SMD:R_0805_2012Metric_Pad1.15x1.40mm_HandSolder" V 11080 8800 50  0001 C CNN
F 3 "~" H 11150 8800 50  0001 C CNN
	1    11150 8800
	0    -1   -1   0   
$EndComp
Wire Wire Line
	10700 9000 10850 9000
Wire Wire Line
	10850 9000 10850 8800
Connection ~ 10850 8800
Wire Wire Line
	10850 8800 11000 8800
$Comp
L Device:C C31
U 1 1 5EB81EBB
P 10450 9250
AR Path="/5E837FB0/5EB81EBB" Ref="C31"  Part="1" 
AR Path="/5F110777/5EB81EBB" Ref="C?"  Part="1" 
F 0 "C31" V 10350 9350 50  0000 L CNN
F 1 "0.1uF/16V(10%)" V 10600 8950 50  0000 L CNN
F 2 "Capacitor_SMD:C_0805_2012Metric_Pad1.15x1.40mm_HandSolder" H 10488 9100 50  0001 C CNN
F 3 "~" H 10450 9250 50  0001 C CNN
	1    10450 9250
	0    1    1    0   
$EndComp
Wire Wire Line
	10000 9000 10000 9250
Wire Wire Line
	10300 9250 10000 9250
Connection ~ 10000 9250
Wire Wire Line
	10000 9250 10000 9350
Wire Wire Line
	10600 9250 10850 9250
Wire Wire Line
	10850 9250 10850 9000
Connection ~ 10850 9000
Wire Wire Line
	11300 8800 11450 8800
$Comp
L Device:R R124
U 1 1 5EBC579E
P 11150 8600
AR Path="/5E837FB0/5EBC579E" Ref="R124"  Part="1" 
AR Path="/5F110777/5EBC579E" Ref="R?"  Part="1" 
F 0 "R124" V 10950 8600 50  0000 C CNN
F 1 "10K(1%)" V 11050 8600 50  0000 C CNN
F 2 "Resistor_SMD:R_0805_2012Metric_Pad1.15x1.40mm_HandSolder" V 11080 8600 50  0001 C CNN
F 3 "~" H 11150 8600 50  0001 C CNN
	1    11150 8600
	0    1    1    0   
$EndComp
Wire Wire Line
	11300 8600 11450 8600
Wire Wire Line
	11450 8600 11450 8800
Wire Wire Line
	11450 8800 11700 8800
Wire Wire Line
	11000 8600 10850 8600
Wire Wire Line
	10850 8600 10850 8400
Text Label 11700 8800 2    50   ~ 0
IO36
$Comp
L PUSH-BTN:4-1437565-2 SW4
U 1 1 5EC3ED12
P 10150 10300
AR Path="/5E837FB0/5EC3ED12" Ref="SW4"  Part="1" 
AR Path="/5F110777/5EC3ED12" Ref="SW?"  Part="1" 
F 0 "SW4" H 10150 10615 50  0000 C CNN
F 1 "BTN_2" H 10150 10524 50  0000 C CNN
F 2 "SW-4-BTN:SW_4-1437565-2" H 10150 10300 50  0001 L BNN
F 3 "https://www.te.com/usa-en/product-4-1437565-2.html?te_bu=Cor&te_type=disp&te_campaign=seda_glo_cor-seda-global-disp-prtnr-fy19-seda-model-bom-cta_sma-317_1&elqCampaignId=32493" H 10150 10300 50  0001 L BNN
F 4 "4-1437565-2" H 10150 10300 50  0001 L BNN "Field4"
	1    10150 10300
	1    0    0    -1  
$EndComp
$Comp
L power:GND #PWR0119
U 1 1 5EC3ED18
P 9700 10750
AR Path="/5E837FB0/5EC3ED18" Ref="#PWR0119"  Part="1" 
AR Path="/5F110777/5EC3ED18" Ref="#PWR?"  Part="1" 
F 0 "#PWR0119" H 9700 10500 50  0001 C CNN
F 1 "GND" H 9705 10577 50  0000 C CNN
F 2 "" H 9700 10750 50  0001 C CNN
F 3 "" H 9700 10750 50  0001 C CNN
	1    9700 10750
	1    0    0    -1  
$EndComp
Wire Wire Line
	9900 10400 9700 10400
Wire Wire Line
	9900 10200 9700 10200
Wire Wire Line
	9700 10200 9700 10400
Connection ~ 9700 10400
Wire Wire Line
	10400 10200 10550 10200
$Comp
L Device:R R123
U 1 1 5EC3ED23
P 10850 10200
AR Path="/5E837FB0/5EC3ED23" Ref="R123"  Part="1" 
AR Path="/5F110777/5EC3ED23" Ref="R?"  Part="1" 
F 0 "R123" V 10650 10200 50  0000 C CNN
F 1 "100(1%)" V 10750 10200 50  0000 C CNN
F 2 "Resistor_SMD:R_0805_2012Metric_Pad1.15x1.40mm_HandSolder" V 10780 10200 50  0001 C CNN
F 3 "~" H 10850 10200 50  0001 C CNN
	1    10850 10200
	0    -1   -1   0   
$EndComp
Wire Wire Line
	10400 10400 10550 10400
Wire Wire Line
	10550 10400 10550 10200
Connection ~ 10550 10200
Wire Wire Line
	10550 10200 10700 10200
$Comp
L Device:C C30
U 1 1 5EC3ED2D
P 10150 10650
AR Path="/5E837FB0/5EC3ED2D" Ref="C30"  Part="1" 
AR Path="/5F110777/5EC3ED2D" Ref="C?"  Part="1" 
F 0 "C30" V 10050 10750 50  0000 L CNN
F 1 "0.1uF/16V(10%)" V 10300 10350 50  0000 L CNN
F 2 "Capacitor_SMD:C_0805_2012Metric_Pad1.15x1.40mm_HandSolder" H 10188 10500 50  0001 C CNN
F 3 "~" H 10150 10650 50  0001 C CNN
	1    10150 10650
	0    1    1    0   
$EndComp
Wire Wire Line
	9700 10400 9700 10650
Wire Wire Line
	10000 10650 9700 10650
Connection ~ 9700 10650
Wire Wire Line
	9700 10650 9700 10750
Wire Wire Line
	10300 10650 10550 10650
Wire Wire Line
	10550 10650 10550 10400
Connection ~ 10550 10400
Wire Wire Line
	11000 10200 11150 10200
$Comp
L Device:R R122
U 1 1 5EC3ED3B
P 10850 10000
AR Path="/5E837FB0/5EC3ED3B" Ref="R122"  Part="1" 
AR Path="/5F110777/5EC3ED3B" Ref="R?"  Part="1" 
F 0 "R122" V 10650 10000 50  0000 C CNN
F 1 "10K(1%)" V 10750 10000 50  0000 C CNN
F 2 "Resistor_SMD:R_0805_2012Metric_Pad1.15x1.40mm_HandSolder" V 10780 10000 50  0001 C CNN
F 3 "~" H 10850 10000 50  0001 C CNN
	1    10850 10000
	0    1    1    0   
$EndComp
Wire Wire Line
	11000 10000 11150 10000
Wire Wire Line
	11150 10000 11150 10200
Connection ~ 11150 10200
Wire Wire Line
	11150 10200 11400 10200
Wire Wire Line
	10700 10000 10550 10000
Wire Wire Line
	10550 10000 10550 9800
Text Label 11400 10200 2    50   ~ 0
IO39
Text Label 14150 6500 2    50   ~ 0
SCL_BUS
Text Label 14150 6600 2    50   ~ 0
SDA_BUS
Wire Wire Line
	10950 3850 11450 3850
Wire Wire Line
	10950 3950 11450 3950
$Comp
L Connector:TestPoint TP6
U 1 1 5EDEF515
P 10250 4850
AR Path="/5E837FB0/5EDEF515" Ref="TP6"  Part="1" 
AR Path="/5F110777/5EDEF515" Ref="TP?"  Part="1" 
F 0 "TP6" V 10204 5038 50  0000 L CNN
F 1 "TXD1" V 10295 5038 50  0000 L CNN
F 2 "TestPoint:TestPoint_Pad_D2.0mm" H 10450 4850 50  0001 C CNN
F 3 "~" H 10450 4850 50  0001 C CNN
	1    10250 4850
	0    -1   -1   0   
$EndComp
$Comp
L Connector:TestPoint TP5
U 1 1 5EDEF51B
P 10250 4650
AR Path="/5E837FB0/5EDEF51B" Ref="TP5"  Part="1" 
AR Path="/5F110777/5EDEF51B" Ref="TP?"  Part="1" 
F 0 "TP5" V 10204 4838 50  0000 L CNN
F 1 "RXD1" V 10295 4838 50  0000 L CNN
F 2 "TestPoint:TestPoint_Pad_D2.0mm" H 10450 4650 50  0001 C CNN
F 3 "~" H 10450 4650 50  0001 C CNN
	1    10250 4650
	0    -1   -1   0   
$EndComp
Wire Wire Line
	10250 4650 11200 4650
Wire Wire Line
	10250 4850 11200 4850
Text Label 10550 4650 2    50   ~ 0
RXD1
Text Label 10550 4850 2    50   ~ 0
TXD1
Wire Notes Line
	12500 5250 9000 5250
Text Notes 9100 5500 0    118  ~ 24
SPI:
Text Label 10950 6150 2    50   ~ 0
IO0
Text Label 10950 6250 2    50   ~ 0
IO2
Text HLabel 11250 5750 2    50   Input ~ 0
VSPI_MOSI
Text HLabel 11250 5850 2    50   Input ~ 0
VSPI_MISO
Text HLabel 11250 5950 2    50   Input ~ 0
VSPI_CLK
Text HLabel 11250 6050 2    50   Input ~ 0
VSPI_CS0
Wire Notes Line
	12500 6500 9000 6500
$Comp
L Connector_Generic:Conn_02x06_Counter_Clockwise J28
U 1 1 5EEBF753
P 10600 7325
F 0 "J28" H 10650 7742 50  0000 C CNN
F 1 "GPIO_EXPANDER" H 10650 7651 50  0000 C CNN
F 2 "Connector_PinHeader_2.54mm:PinHeader_2x06_P2.54mm_Vertical" H 10600 7325 50  0001 C CNN
F 3 "~" H 10600 7325 50  0001 C CNN
	1    10600 7325
	1    0    0    -1  
$EndComp
$Comp
L power:GND #PWR0124
U 1 1 5EEC134C
P 11800 7175
AR Path="/5E837FB0/5EEC134C" Ref="#PWR0124"  Part="1" 
AR Path="/5F110777/5EEC134C" Ref="#PWR?"  Part="1" 
F 0 "#PWR0124" H 11800 6925 50  0001 C CNN
F 1 "GND" H 11805 7002 50  0000 C CNN
F 2 "" H 11800 7175 50  0001 C CNN
F 3 "" H 11800 7175 50  0001 C CNN
	1    11800 7175
	1    0    0    -1  
$EndComp
Wire Wire Line
	10900 7125 11500 7125
Wire Wire Line
	9850 7125 10400 7125
Wire Wire Line
	10400 7225 9850 7225
Wire Wire Line
	9850 7325 10400 7325
Wire Wire Line
	10400 7425 9850 7425
Wire Wire Line
	10400 7525 9850 7525
Wire Wire Line
	10900 7225 11500 7225
Wire Wire Line
	10900 7325 11500 7325
Wire Wire Line
	10900 7425 11500 7425
Wire Wire Line
	10900 7525 11500 7525
Text Label 11500 7325 2    50   ~ 0
IO0
Text Label 11500 7425 2    50   ~ 0
IO2
Text Label 11500 7625 2    50   ~ 0
IO4
Text Label 11500 7525 2    50   ~ 0
IO5
Text Label 9850 7425 0    50   ~ 0
IO34
Text Label 9850 7325 0    50   ~ 0
IO35
Text Label 9850 7625 0    50   ~ 0
IO36
Text Label 9850 7525 0    50   ~ 0
IO39
Text Notes 9050 6750 0    118  ~ 24
GPIO Expander:
Wire Notes Line
	12500 6000 16000 6000
Wire Notes Line
	500  8000 16000 8000
Text Notes 12550 8250 0    118  ~ 24
LEDs:
Text Notes 9050 8250 0    118  ~ 24
Buttons:
Connection ~ 11450 8800
Wire Notes Line
	11800 11200 11800 9950
Wire Notes Line
	11800 9950 16000 9950
Wire Notes Line
	500  11200 11800 11200
Wire Notes Line
	16000 500  16000 9950
Wire Notes Line
	12500 3100 12500 9950
$Comp
L power:GND #PWR0116
U 1 1 5F36774F
P 7050 3300
AR Path="/5E837FB0/5F36774F" Ref="#PWR0116"  Part="1" 
AR Path="/5F110777/5F36774F" Ref="#PWR?"  Part="1" 
F 0 "#PWR0116" H 7050 3050 50  0001 C CNN
F 1 "GND" H 7055 3127 50  0000 C CNN
F 2 "" H 7050 3300 50  0001 C CNN
F 3 "" H 7050 3300 50  0001 C CNN
	1    7050 3300
	1    0    0    -1  
$EndComp
Wire Wire Line
	7050 3300 7050 3150
$Comp
L Connector_Generic:Conn_01x04 J30
U 1 1 5EB201CA
P 13200 6600
F 0 "J30" H 13200 6300 50  0000 C CNN
F 1 "I2C_BUS" H 13200 6825 50  0000 C CNN
F 2 "Connector_PinHeader_2.54mm:PinHeader_1x04_P2.54mm_Vertical" H 13200 6600 50  0001 C CNN
F 3 "~" H 13200 6600 50  0001 C CNN
	1    13200 6600
	-1   0    0    1   
$EndComp
Wire Wire Line
	13400 6400 14150 6400
$Comp
L power:GND #PWR0136
U 1 1 5EB97187
P 15650 6850
AR Path="/5E837FB0/5EB97187" Ref="#PWR0136"  Part="1" 
AR Path="/5F110777/5EB97187" Ref="#PWR?"  Part="1" 
F 0 "#PWR0136" H 15650 6600 50  0001 C CNN
F 1 "GND" H 15655 6677 50  0000 C CNN
F 2 "" H 15650 6850 50  0001 C CNN
F 3 "" H 15650 6850 50  0001 C CNN
	1    15650 6850
	1    0    0    -1  
$EndComp
Text Label 15650 6550 2    50   ~ 0
SCL_BUS
Text Label 15650 6650 2    50   ~ 0
SDA_BUS
$Comp
L power:+3V3 #PWR0103
U 1 1 5EDFEA34
P 950 1500
AR Path="/5E837FB0/5EDFEA34" Ref="#PWR0103"  Part="1" 
AR Path="/5F110777/5EDFEA34" Ref="#PWR?"  Part="1" 
F 0 "#PWR0103" H 950 1350 50  0001 C CNN
F 1 "+3V3" H 965 1673 50  0000 C CNN
F 2 "" H 950 1500 50  0001 C CNN
F 3 "" H 950 1500 50  0001 C CNN
	1    950  1500
	1    0    0    -1  
$EndComp
Wire Wire Line
	950  1500 950  1650
$Comp
L Custom-power:+3V3ESP #PWR0111
U 1 1 5EE1B6C9
P 3300 1500
F 0 "#PWR0111" H 3100 1500 50  0001 C CNN
F 1 "+3V3ESP" H 3282 1673 50  0000 C CNN
F 2 "" H 3300 1500 50  0001 C CNN
F 3 "" H 3300 1500 50  0001 C CNN
	1    3300 1500
	1    0    0    -1  
$EndComp
Wire Wire Line
	3300 1500 3300 1650
$Comp
L Custom-power:+3V3ESP #PWR0115
U 1 1 5EE3827F
P 7050 1100
F 0 "#PWR0115" H 6850 1100 50  0001 C CNN
F 1 "+3V3ESP" H 7032 1273 50  0000 C CNN
F 2 "" H 7050 1100 50  0001 C CNN
F 3 "" H 7050 1100 50  0001 C CNN
	1    7050 1100
	1    0    0    -1  
$EndComp
Wire Wire Line
	7050 1200 7050 1100
$Comp
L Custom-power:+3V3ESP #PWR0104
U 1 1 5EE558FD
P 1400 2900
F 0 "#PWR0104" H 1200 2900 50  0001 C CNN
F 1 "+3V3ESP" H 1382 3073 50  0000 C CNN
F 2 "" H 1400 2900 50  0001 C CNN
F 3 "" H 1400 2900 50  0001 C CNN
	1    1400 2900
	1    0    0    -1  
$EndComp
Wire Wire Line
	1400 2900 1400 3000
$Comp
L power:+VSW #PWR0106
U 1 1 5EE756F5
P 2000 6200
F 0 "#PWR0106" H 2000 6050 50  0001 C CNN
F 1 "+VSW" H 2015 6373 50  0000 C CNN
F 2 "" H 2000 6200 50  0001 C CNN
F 3 "" H 2000 6200 50  0001 C CNN
	1    2000 6200
	1    0    0    -1  
$EndComp
Wire Wire Line
	2000 6200 2000 6300
$Comp
L Custom-power:+3V3ESP #PWR0127
U 1 1 5EE94AA3
P 11850 1300
F 0 "#PWR0127" H 11650 1300 50  0001 C CNN
F 1 "+3V3ESP" H 11832 1473 50  0000 C CNN
F 2 "" H 11850 1300 50  0001 C CNN
F 3 "" H 11850 1300 50  0001 C CNN
	1    11850 1300
	1    0    0    -1  
$EndComp
Wire Wire Line
	11850 1300 11850 1400
$Comp
L Custom-power:+3V3ESP #PWR0125
U 1 1 5EEB335D
P 11700 3650
F 0 "#PWR0125" H 11500 3650 50  0001 C CNN
F 1 "+3V3ESP" H 11682 3823 50  0000 C CNN
F 2 "" H 11700 3650 50  0001 C CNN
F 3 "" H 11700 3650 50  0001 C CNN
	1    11700 3650
	1    0    0    -1  
$EndComp
Wire Wire Line
	11700 3650 11700 3750
Connection ~ 11700 3750
$Comp
L Custom-power:+3V3SENS #PWR0130
U 1 1 5EED1D8D
P 14150 6300
F 0 "#PWR0130" H 13950 6300 50  0001 C CNN
F 1 "+3V3SENS" H 14132 6473 50  0000 C CNN
F 2 "" H 14150 6300 50  0001 C CNN
F 3 "" H 14150 6300 50  0001 C CNN
	1    14150 6300
	1    0    0    -1  
$EndComp
Wire Wire Line
	14150 6300 14150 6400
$Comp
L Custom-power:+3V3ESP #PWR0129
U 1 1 5EF61E61
P 13500 7200
F 0 "#PWR0129" H 13300 7200 50  0001 C CNN
F 1 "+3V3ESP" H 13482 7373 50  0000 C CNN
F 2 "" H 13500 7200 50  0001 C CNN
F 3 "" H 13500 7200 50  0001 C CNN
	1    13500 7200
	1    0    0    -1  
$EndComp
Wire Wire Line
	13500 7200 13500 7300
$Comp
L Custom-power:+3V3ESP #PWR0123
U 1 1 5EF7FB6A
P 10850 8400
F 0 "#PWR0123" H 10650 8400 50  0001 C CNN
F 1 "+3V3ESP" H 10832 8573 50  0000 C CNN
F 2 "" H 10850 8400 50  0001 C CNN
F 3 "" H 10850 8400 50  0001 C CNN
	1    10850 8400
	1    0    0    -1  
$EndComp
$Comp
L Custom-power:+3V3ESP #PWR0122
U 1 1 5EF9E43A
P 10550 9800
F 0 "#PWR0122" H 10350 9800 50  0001 C CNN
F 1 "+3V3ESP" H 10532 9973 50  0000 C CNN
F 2 "" H 10550 9800 50  0001 C CNN
F 3 "" H 10550 9800 50  0001 C CNN
	1    10550 9800
	1    0    0    -1  
$EndComp
$Comp
L Custom-power:+3V3SENS #PWR0135
U 1 1 5F14B04F
P 15800 6550
F 0 "#PWR0135" H 15600 6550 50  0001 C CNN
F 1 "+3V3SENS" H 15782 6723 50  0000 C CNN
F 2 "" H 15800 6550 50  0001 C CNN
F 3 "" H 15800 6550 50  0001 C CNN
	1    15800 6550
	1    0    0    -1  
$EndComp
Wire Wire Line
	15200 6550 15650 6550
Wire Wire Line
	15650 6650 15200 6650
Wire Wire Line
	15200 6750 15800 6750
Wire Wire Line
	15800 6550 15800 6750
Wire Wire Line
	15650 6850 15200 6850
Wire Wire Line
	13375 4725 13925 4725
Wire Wire Line
	14975 4825 14425 4825
Wire Wire Line
	6650 1600 7500 1600
Wire Wire Line
	6650 1700 7500 1700
Text Label 7500 1600 2    50   ~ 0
IO36
Text Label 7500 1700 2    50   ~ 0
IO39
$Comp
L Custom-power:+3V3ESP #PWR0121
U 1 1 5F475C70
P 9850 7075
F 0 "#PWR0121" H 9650 7075 50  0001 C CNN
F 1 "+3V3ESP" H 9832 7248 50  0000 C CNN
F 2 "" H 9850 7075 50  0001 C CNN
F 3 "" H 9850 7075 50  0001 C CNN
	1    9850 7075
	1    0    0    -1  
$EndComp
Wire Wire Line
	9850 7075 9850 7125
Connection ~ 9850 7125
Wire Wire Line
	9850 7125 9850 7225
Wire Wire Line
	11500 7125 11500 7225
Wire Wire Line
	11500 7125 11800 7125
Connection ~ 11500 7125
Wire Wire Line
	11800 7175 11800 7125
Wire Wire Line
	9850 7625 10400 7625
Wire Wire Line
	11500 7625 10900 7625
$Comp
L Connector_Generic:Conn_02x02_Odd_Even J40
U 1 1 5EB4FD78
P 14125 4725
F 0 "J40" H 14175 4942 50  0000 C CNN
F 1 "JTAG_CONFIG" H 14175 4851 50  0000 C CNN
F 2 "Connector_PinHeader_2.54mm:PinHeader_2x02_P2.54mm_Vertical" H 14125 4725 50  0001 C CNN
F 3 "~" H 14125 4725 50  0001 C CNN
	1    14125 4725
	1    0    0    -1  
$EndComp
Wire Wire Line
	13375 4825 13925 4825
Wire Wire Line
	14425 4725 14975 4725
$Comp
L SM04B-SRSS-TB_LF__SN_:SM04B-SRSS-TB(LF)(SN) J32
U 1 1 5F0F2060
P 14900 6650
F 0 "J32" H 14843 6083 50  0000 C CNN
F 1 "QWICC_BUS" H 14843 6174 50  0000 C CNN
F 2 "SM04B-SRSS-TB_LF__SN_:JST_SM04B-SRSS-TB(LF)(SN)" H 14900 6650 50  0001 L BNN
F 3 "Manufacturer recommendations" H 14900 6650 50  0001 L BNN
F 4 "JST" H 14900 6650 50  0001 L BNN "Field4"
	1    14900 6650
	-1   0    0    1   
$EndComp
$Comp
L power:VSS #PWR0176
U 1 1 5ED9DFC1
P 15300 6350
F 0 "#PWR0176" H 15300 6200 50  0001 C CNN
F 1 "VSS" H 15317 6523 50  0000 C CNN
F 2 "" H 15300 6350 50  0001 C CNN
F 3 "" H 15300 6350 50  0001 C CNN
	1    15300 6350
	1    0    0    -1  
$EndComp
Wire Wire Line
	15200 6350 15300 6350
Text HLabel 4050 5600 0    50   Input ~ 0
D+
Text HLabel 4050 5700 0    50   Input ~ 0
D-
$EndSCHEMATC
