EESchema Schematic File Version 4
EELAYER 30 0
EELAYER END
$Descr A4 11693 8268
encoding utf-8
Sheet 4 4
Title ""
Date ""
Rev ""
Comp ""
Comment1 ""
Comment2 ""
Comment3 ""
Comment4 ""
$EndDescr
$Comp
L Connector:USB_B_Mini J?
U 1 1 5EDFA975
P 1700 1800
AR Path="/5E837FB0/5EDFA975" Ref="J?"  Part="1" 
AR Path="/5E84ABE1/5EDFA975" Ref="J34"  Part="1" 
F 0 "J34" H 1757 2267 50  0000 C CNN
F 1 "USB_IN" H 1757 2176 50  0000 C CNN
F 2 "Connector_USB:USB_Mini-B_Wuerth_65100516121_Horizontal" H 1850 1750 50  0001 C CNN
F 3 "~" H 1850 1750 50  0001 C CNN
	1    1700 1800
	1    0    0    -1  
$EndComp
$Comp
L power:GND #PWR?
U 1 1 5EDFA97E
P 1700 2400
AR Path="/5E837FB0/5EDFA97E" Ref="#PWR?"  Part="1" 
AR Path="/5E84ABE1/5EDFA97E" Ref="#PWR0139"  Part="1" 
F 0 "#PWR0139" H 1700 2150 50  0001 C CNN
F 1 "GND" H 1705 2227 50  0000 C CNN
F 2 "" H 1700 2400 50  0001 C CNN
F 3 "" H 1700 2400 50  0001 C CNN
	1    1700 2400
	1    0    0    -1  
$EndComp
Text Label 2400 1800 2    50   ~ 0
D+
Text Label 2400 1900 2    50   ~ 0
D-
Text Label 2400 1600 2    50   ~ 0
USB_PWR
$Comp
L Power_Protection:NUP2105L D?
U 1 1 5EDFA98D
P 2550 2200
AR Path="/5E837FB0/5EDFA98D" Ref="D?"  Part="1" 
AR Path="/5E84ABE1/5EDFA98D" Ref="D5"  Part="1" 
F 0 "D5" H 2755 2246 50  0000 L CNN
F 1 "NUP2105L" H 2755 2155 50  0000 L CNN
F 2 "Package_TO_SOT_SMD:SOT-23" H 2775 2150 50  0001 L CNN
F 3 "http://www.onsemi.com/pub_link/Collateral/NUP2105L-D.PDF" H 2675 2325 50  0001 C CNN
	1    2550 2200
	1    0    0    -1  
$EndComp
$Comp
L power:GND #PWR?
U 1 1 5EDFA995
P 2550 2400
AR Path="/5E837FB0/5EDFA995" Ref="#PWR?"  Part="1" 
AR Path="/5E84ABE1/5EDFA995" Ref="#PWR0145"  Part="1" 
F 0 "#PWR0145" H 2550 2150 50  0001 C CNN
F 1 "GND" H 2555 2227 50  0000 C CNN
F 2 "" H 2550 2400 50  0001 C CNN
F 3 "" H 2550 2400 50  0001 C CNN
	1    2550 2400
	1    0    0    -1  
$EndComp
Wire Wire Line
	1950 3250 2350 3250
$Comp
L power:GND #PWR?
U 1 1 5EDFA9A4
P 2350 3250
AR Path="/5E837FB0/5EDFA9A4" Ref="#PWR?"  Part="1" 
AR Path="/5E84ABE1/5EDFA9A4" Ref="#PWR0142"  Part="1" 
F 0 "#PWR0142" H 2350 3000 50  0001 C CNN
F 1 "GND" H 2355 3077 50  0000 C CNN
F 2 "" H 2350 3250 50  0001 C CNN
F 3 "" H 2350 3250 50  0001 C CNN
	1    2350 3250
	1    0    0    -1  
$EndComp
$Comp
L Power_Protection:NUP2105L D?
U 1 1 5EDFA9B8
P 2900 3250
AR Path="/5E837FB0/5EDFA9B8" Ref="D?"  Part="1" 
AR Path="/5E84ABE1/5EDFA9B8" Ref="D6"  Part="1" 
F 0 "D6" H 3105 3296 50  0000 L CNN
F 1 "NUP2105L" H 3105 3205 50  0000 L CNN
F 2 "Package_TO_SOT_SMD:SOT-23" H 3125 3200 50  0001 L CNN
F 3 "http://www.onsemi.com/pub_link/Collateral/NUP2105L-D.PDF" H 3025 3375 50  0001 C CNN
	1    2900 3250
	1    0    0    -1  
$EndComp
$Comp
L power:GND #PWR?
U 1 1 5EDFA9BE
P 2900 3500
AR Path="/5E837FB0/5EDFA9BE" Ref="#PWR?"  Part="1" 
AR Path="/5E84ABE1/5EDFA9BE" Ref="#PWR0147"  Part="1" 
F 0 "#PWR0147" H 2900 3250 50  0001 C CNN
F 1 "GND" H 2905 3327 50  0000 C CNN
F 2 "" H 2900 3500 50  0001 C CNN
F 3 "" H 2900 3500 50  0001 C CNN
	1    2900 3500
	1    0    0    -1  
$EndComp
Wire Wire Line
	2900 3450 2900 3500
Wire Wire Line
	3000 2950 3000 3050
$Comp
L BLM18SG121TN1D:BLM18SG121TN1D FL3
U 1 1 5EE2E3EE
P 5300 1500
F 0 "FL3" H 5250 1742 50  0000 C CNN
F 1 "BLM18SG121TN1D" H 5250 1651 50  0000 C CNN
F 2 "BLM18SG121:BEADC1608X65N" H 5300 1500 50  0001 L BNN
F 3 "" H 5300 1500 50  0001 C CNN
	1    5300 1500
	1    0    0    -1  
$EndComp
$Comp
L BLM18SG121TN1D:BLM18SG121TN1D FL4
U 1 1 5EE2E3F4
P 5300 3000
F 0 "FL4" H 5250 3242 50  0000 C CNN
F 1 "BLM18SG121TN1D" H 5250 3151 50  0000 C CNN
F 2 "BLM18SG121:BEADC1608X65N" H 5300 3000 50  0001 L BNN
F 3 "" H 5300 3000 50  0001 C CNN
	1    5300 3000
	1    0    0    -1  
$EndComp
$Comp
L BLM18SG121TN1D:BLM18SG121TN1D FL5
U 1 1 5EE2E3FA
P 5300 4500
F 0 "FL5" H 5250 4742 50  0000 C CNN
F 1 "BLM18SG121TN1D" H 5250 4651 50  0000 C CNN
F 2 "BLM18SG121:BEADC1608X65N" H 5300 4500 50  0001 L BNN
F 3 "" H 5300 4500 50  0001 C CNN
	1    5300 4500
	1    0    0    -1  
$EndComp
$Comp
L Regulator_Linear:LD1117S33TR_SOT223 U19
U 1 1 5EE2E40D
P 7400 1500
F 0 "U19" H 7400 1742 50  0000 C CNN
F 1 "ESP-REG" H 7400 1651 50  0000 C CNN
F 2 "Package_TO_SOT_SMD:SOT-223-3_TabPin2" H 7400 1700 50  0001 C CNN
F 3 "http://www.st.com/st-web-ui/static/active/en/resource/technical/document/datasheet/CD00000544.pdf" H 7500 1250 50  0001 C CNN
	1    7400 1500
	1    0    0    -1  
$EndComp
Text Label 6300 1500 0    50   ~ 0
V_BUS_for_ESP32
$Comp
L power:GND #PWR0161
U 1 1 5EE2E415
P 7400 2200
F 0 "#PWR0161" H 7400 1950 50  0001 C CNN
F 1 "GND" H 7405 2027 50  0000 C CNN
F 2 "" H 7400 2200 50  0001 C CNN
F 3 "" H 7400 2200 50  0001 C CNN
	1    7400 2200
	1    0    0    -1  
$EndComp
Wire Wire Line
	7400 1800 7400 2200
Wire Wire Line
	6250 1800 6250 1500
Wire Wire Line
	6700 1800 6700 1500
Wire Wire Line
	6700 2100 6700 2200
Wire Wire Line
	6250 2100 6250 2200
$Comp
L power:GND #PWR0155
U 1 1 5EE2E422
P 6250 2200
F 0 "#PWR0155" H 6250 1950 50  0001 C CNN
F 1 "GND" H 6255 2027 50  0000 C CNN
F 2 "" H 6250 2200 50  0001 C CNN
F 3 "" H 6250 2200 50  0001 C CNN
	1    6250 2200
	1    0    0    -1  
$EndComp
$Comp
L power:GND #PWR0158
U 1 1 5EE2E428
P 6700 2200
F 0 "#PWR0158" H 6700 1950 50  0001 C CNN
F 1 "GND" H 6705 2027 50  0000 C CNN
F 2 "" H 6700 2200 50  0001 C CNN
F 3 "" H 6700 2200 50  0001 C CNN
	1    6700 2200
	1    0    0    -1  
$EndComp
$Comp
L Device:C C34
U 1 1 5EE2E42E
P 6250 1950
F 0 "C34" H 6150 2050 50  0000 L CNN
F 1 "10uF/16V(10%)" V 6400 1650 50  0000 L CNN
F 2 "Capacitor_SMD:C_0805_2012Metric_Pad1.15x1.40mm_HandSolder" H 6288 1800 50  0001 C CNN
F 3 "~" H 6250 1950 50  0001 C CNN
	1    6250 1950
	1    0    0    -1  
$EndComp
$Comp
L Device:C C37
U 1 1 5EE2E434
P 6700 1950
F 0 "C37" H 6600 2050 50  0000 L CNN
F 1 "0.1uF/16V(10%)" V 6850 1650 50  0000 L CNN
F 2 "Capacitor_SMD:C_0805_2012Metric_Pad1.15x1.40mm_HandSolder" H 6738 1800 50  0001 C CNN
F 3 "~" H 6700 1950 50  0001 C CNN
	1    6700 1950
	1    0    0    -1  
$EndComp
Wire Wire Line
	8850 1500 8850 1800
Wire Wire Line
	8250 1800 8250 1500
$Comp
L power:GND #PWR0164
U 1 1 5EE2E43F
P 8250 2200
F 0 "#PWR0164" H 8250 1950 50  0001 C CNN
F 1 "GND" H 8255 2027 50  0000 C CNN
F 2 "" H 8250 2200 50  0001 C CNN
F 3 "" H 8250 2200 50  0001 C CNN
	1    8250 2200
	1    0    0    -1  
$EndComp
$Comp
L power:GND #PWR0167
U 1 1 5EE2E445
P 8850 2200
F 0 "#PWR0167" H 8850 1950 50  0001 C CNN
F 1 "GND" H 8855 2027 50  0000 C CNN
F 2 "" H 8850 2200 50  0001 C CNN
F 3 "" H 8850 2200 50  0001 C CNN
	1    8850 2200
	1    0    0    -1  
$EndComp
Wire Wire Line
	8850 2100 8850 2200
Wire Wire Line
	8250 2100 8250 2200
$Comp
L Device:R R138
U 1 1 5EE2E44D
P 9250 1500
F 0 "R138" V 9043 1500 50  0000 C CNN
F 1 "0R(1%)" V 9134 1500 50  0000 C CNN
F 2 "Resistor_SMD:R_0805_2012Metric_Pad1.15x1.40mm_HandSolder" V 9180 1500 50  0001 C CNN
F 3 "~" H 9250 1500 50  0001 C CNN
	1    9250 1500
	0    1    1    0   
$EndComp
$Comp
L Device:LED D7
U 1 1 5EE2E455
P 7925 2000
F 0 "D7" H 7925 2200 50  0000 C CNN
F 1 "ESP_PWR_LED" H 7825 2100 50  0000 C CNN
F 2 "LED_SMD:LED_0805_2012Metric" H 7925 2000 50  0001 C CNN
F 3 "~" H 7925 2000 50  0001 C CNN
	1    7925 2000
	0    -1   -1   0   
$EndComp
$Comp
L Device:R R135
U 1 1 5EE2E45B
P 7925 1700
F 0 "R135" V 7725 1700 50  0000 C CNN
F 1 "2K(1%)" V 7825 1700 50  0000 C CNN
F 2 "Resistor_SMD:R_0805_2012Metric_Pad1.15x1.40mm_HandSolder" V 7855 1700 50  0001 C CNN
F 3 "~" H 7925 1700 50  0001 C CNN
	1    7925 1700
	1    0    0    -1  
$EndComp
$Comp
L power:GND #PWR0152
U 1 1 5EE2E461
P 7925 2200
F 0 "#PWR0152" H 7925 1950 50  0001 C CNN
F 1 "GND" H 7930 2027 50  0000 C CNN
F 2 "" H 7925 2200 50  0001 C CNN
F 3 "" H 7925 2200 50  0001 C CNN
	1    7925 2200
	1    0    0    -1  
$EndComp
Wire Wire Line
	7925 2150 7925 2200
Wire Wire Line
	7925 1550 7925 1500
$Comp
L Device:C C40
U 1 1 5EE2E46B
P 8250 1950
F 0 "C40" H 8150 2050 50  0000 L CNN
F 1 "10uF/16V(10%)" V 8400 1650 50  0000 L CNN
F 2 "Capacitor_SMD:C_0805_2012Metric_Pad1.15x1.40mm_HandSolder" H 8288 1800 50  0001 C CNN
F 3 "~" H 8250 1950 50  0001 C CNN
	1    8250 1950
	1    0    0    -1  
$EndComp
$Comp
L Device:C C43
U 1 1 5EE2E471
P 8850 1950
F 0 "C43" H 8750 2050 50  0000 L CNN
F 1 "0.1uF/16V(10%)" V 9000 1650 50  0000 L CNN
F 2 "Capacitor_SMD:C_0805_2012Metric_Pad1.15x1.40mm_HandSolder" H 8888 1800 50  0001 C CNN
F 3 "~" H 8850 1950 50  0001 C CNN
	1    8850 1950
	1    0    0    -1  
$EndComp
$Comp
L Regulator_Linear:LD1117S33TR_SOT223 U20
U 1 1 5EE50FD9
P 7400 3000
F 0 "U20" H 7400 3242 50  0000 C CNN
F 1 "SENS-REG" H 7400 3151 50  0000 C CNN
F 2 "Package_TO_SOT_SMD:SOT-223-3_TabPin2" H 7400 3200 50  0001 C CNN
F 3 "http://www.st.com/st-web-ui/static/active/en/resource/technical/document/datasheet/CD00000544.pdf" H 7500 2750 50  0001 C CNN
	1    7400 3000
	1    0    0    -1  
$EndComp
$Comp
L power:GND #PWR0162
U 1 1 5EE50FE1
P 7400 3700
F 0 "#PWR0162" H 7400 3450 50  0001 C CNN
F 1 "GND" H 7405 3527 50  0000 C CNN
F 2 "" H 7400 3700 50  0001 C CNN
F 3 "" H 7400 3700 50  0001 C CNN
	1    7400 3700
	1    0    0    -1  
$EndComp
Wire Wire Line
	7400 3300 7400 3700
Wire Wire Line
	6250 3300 6250 3000
Wire Wire Line
	6700 3300 6700 3000
Wire Wire Line
	6700 3600 6700 3700
Wire Wire Line
	6250 3600 6250 3700
$Comp
L power:GND #PWR0156
U 1 1 5EE50FEE
P 6250 3700
F 0 "#PWR0156" H 6250 3450 50  0001 C CNN
F 1 "GND" H 6255 3527 50  0000 C CNN
F 2 "" H 6250 3700 50  0001 C CNN
F 3 "" H 6250 3700 50  0001 C CNN
	1    6250 3700
	1    0    0    -1  
$EndComp
$Comp
L power:GND #PWR0159
U 1 1 5EE50FF4
P 6700 3700
F 0 "#PWR0159" H 6700 3450 50  0001 C CNN
F 1 "GND" H 6705 3527 50  0000 C CNN
F 2 "" H 6700 3700 50  0001 C CNN
F 3 "" H 6700 3700 50  0001 C CNN
	1    6700 3700
	1    0    0    -1  
$EndComp
$Comp
L Device:C C35
U 1 1 5EE50FFA
P 6250 3450
F 0 "C35" H 6150 3550 50  0000 L CNN
F 1 "10uF/16V(10%)" V 6400 3150 50  0000 L CNN
F 2 "Capacitor_SMD:C_0805_2012Metric_Pad1.15x1.40mm_HandSolder" H 6288 3300 50  0001 C CNN
F 3 "~" H 6250 3450 50  0001 C CNN
	1    6250 3450
	1    0    0    -1  
$EndComp
$Comp
L Device:C C38
U 1 1 5EE51000
P 6700 3450
F 0 "C38" H 6600 3550 50  0000 L CNN
F 1 "0.1uF/16V(10%)" V 6850 3150 50  0000 L CNN
F 2 "Capacitor_SMD:C_0805_2012Metric_Pad1.15x1.40mm_HandSolder" H 6738 3300 50  0001 C CNN
F 3 "~" H 6700 3450 50  0001 C CNN
	1    6700 3450
	1    0    0    -1  
$EndComp
Wire Wire Line
	8850 3000 8850 3300
Wire Wire Line
	8250 3300 8250 3000
$Comp
L power:GND #PWR0165
U 1 1 5EE5100B
P 8250 3700
F 0 "#PWR0165" H 8250 3450 50  0001 C CNN
F 1 "GND" H 8255 3527 50  0000 C CNN
F 2 "" H 8250 3700 50  0001 C CNN
F 3 "" H 8250 3700 50  0001 C CNN
	1    8250 3700
	1    0    0    -1  
$EndComp
$Comp
L power:GND #PWR0168
U 1 1 5EE51011
P 8850 3700
F 0 "#PWR0168" H 8850 3450 50  0001 C CNN
F 1 "GND" H 8855 3527 50  0000 C CNN
F 2 "" H 8850 3700 50  0001 C CNN
F 3 "" H 8850 3700 50  0001 C CNN
	1    8850 3700
	1    0    0    -1  
$EndComp
Wire Wire Line
	8850 3600 8850 3700
Wire Wire Line
	8250 3600 8250 3700
$Comp
L Device:R R139
U 1 1 5EE51019
P 9250 3000
F 0 "R139" V 9043 3000 50  0000 C CNN
F 1 "0R(1%)" V 9134 3000 50  0000 C CNN
F 2 "Resistor_SMD:R_0805_2012Metric_Pad1.15x1.40mm_HandSolder" V 9180 3000 50  0001 C CNN
F 3 "~" H 9250 3000 50  0001 C CNN
	1    9250 3000
	0    1    1    0   
$EndComp
Wire Wire Line
	9100 3000 8850 3000
$Comp
L Device:LED D8
U 1 1 5EE51021
P 7900 3500
F 0 "D8" H 7900 3700 50  0000 C CNN
F 1 "SENS_PWR_LED" H 7800 3600 50  0000 C CNN
F 2 "LED_SMD:LED_0805_2012Metric" H 7900 3500 50  0001 C CNN
F 3 "~" H 7900 3500 50  0001 C CNN
	1    7900 3500
	0    -1   -1   0   
$EndComp
$Comp
L Device:R R136
U 1 1 5EE51027
P 7900 3200
F 0 "R136" V 7700 3200 50  0000 C CNN
F 1 "2K(1%)" V 7800 3200 50  0000 C CNN
F 2 "Resistor_SMD:R_0805_2012Metric_Pad1.15x1.40mm_HandSolder" V 7830 3200 50  0001 C CNN
F 3 "~" H 7900 3200 50  0001 C CNN
	1    7900 3200
	1    0    0    -1  
$EndComp
$Comp
L power:GND #PWR0153
U 1 1 5EE5102D
P 7900 3700
F 0 "#PWR0153" H 7900 3450 50  0001 C CNN
F 1 "GND" H 7905 3527 50  0000 C CNN
F 2 "" H 7900 3700 50  0001 C CNN
F 3 "" H 7900 3700 50  0001 C CNN
	1    7900 3700
	1    0    0    -1  
$EndComp
Wire Wire Line
	7900 3650 7900 3700
Wire Wire Line
	7900 3050 7900 3000
$Comp
L Device:C C41
U 1 1 5EE51037
P 8250 3450
F 0 "C41" H 8150 3550 50  0000 L CNN
F 1 "10uF/16V(10%)" V 8400 3150 50  0000 L CNN
F 2 "Capacitor_SMD:C_0805_2012Metric_Pad1.15x1.40mm_HandSolder" H 8288 3300 50  0001 C CNN
F 3 "~" H 8250 3450 50  0001 C CNN
	1    8250 3450
	1    0    0    -1  
$EndComp
$Comp
L Device:C C44
U 1 1 5EE5103D
P 8850 3450
F 0 "C44" H 8750 3550 50  0000 L CNN
F 1 "0.1uF/16V(10%)" V 9000 3150 50  0000 L CNN
F 2 "Capacitor_SMD:C_0805_2012Metric_Pad1.15x1.40mm_HandSolder" H 8888 3300 50  0001 C CNN
F 3 "~" H 8850 3450 50  0001 C CNN
	1    8850 3450
	1    0    0    -1  
$EndComp
Text Label 6300 3000 0    50   ~ 0
V_BUS_for_SENSORS
$Comp
L Regulator_Linear:LD1117S33TR_SOT223 U21
U 1 1 5E92E15D
P 7400 4500
F 0 "U21" H 7400 4742 50  0000 C CNN
F 1 "STM-REG" H 7400 4651 50  0000 C CNN
F 2 "Package_TO_SOT_SMD:SOT-223-3_TabPin2" H 7400 4700 50  0001 C CNN
F 3 "http://www.st.com/st-web-ui/static/active/en/resource/technical/document/datasheet/CD00000544.pdf" H 7500 4250 50  0001 C CNN
	1    7400 4500
	1    0    0    -1  
$EndComp
Text Label 6300 4500 0    50   ~ 0
V_BUS_for_STM32
$Comp
L power:GND #PWR0163
U 1 1 5E92E165
P 7400 5200
F 0 "#PWR0163" H 7400 4950 50  0001 C CNN
F 1 "GND" H 7405 5027 50  0000 C CNN
F 2 "" H 7400 5200 50  0001 C CNN
F 3 "" H 7400 5200 50  0001 C CNN
	1    7400 5200
	1    0    0    -1  
$EndComp
Wire Wire Line
	7400 4800 7400 5200
Wire Wire Line
	6250 4800 6250 4500
Wire Wire Line
	6700 4800 6700 4500
Wire Wire Line
	6700 5100 6700 5200
Wire Wire Line
	6250 5100 6250 5200
$Comp
L power:GND #PWR0157
U 1 1 5E92E172
P 6250 5200
F 0 "#PWR0157" H 6250 4950 50  0001 C CNN
F 1 "GND" H 6255 5027 50  0000 C CNN
F 2 "" H 6250 5200 50  0001 C CNN
F 3 "" H 6250 5200 50  0001 C CNN
	1    6250 5200
	1    0    0    -1  
$EndComp
$Comp
L power:GND #PWR0160
U 1 1 5E92E178
P 6700 5200
F 0 "#PWR0160" H 6700 4950 50  0001 C CNN
F 1 "GND" H 6705 5027 50  0000 C CNN
F 2 "" H 6700 5200 50  0001 C CNN
F 3 "" H 6700 5200 50  0001 C CNN
	1    6700 5200
	1    0    0    -1  
$EndComp
$Comp
L Device:C C36
U 1 1 5E92E17E
P 6250 4950
F 0 "C36" H 6150 5050 50  0000 L CNN
F 1 "10uF/16V(10%)" V 6400 4650 50  0000 L CNN
F 2 "Capacitor_SMD:C_0805_2012Metric_Pad1.15x1.40mm_HandSolder" H 6288 4800 50  0001 C CNN
F 3 "~" H 6250 4950 50  0001 C CNN
	1    6250 4950
	1    0    0    -1  
$EndComp
$Comp
L Device:C C39
U 1 1 5E92E184
P 6700 4950
F 0 "C39" H 6600 5050 50  0000 L CNN
F 1 "0.1uF/16V(10%)" V 6850 4650 50  0000 L CNN
F 2 "Capacitor_SMD:C_0805_2012Metric_Pad1.15x1.40mm_HandSolder" H 6738 4800 50  0001 C CNN
F 3 "~" H 6700 4950 50  0001 C CNN
	1    6700 4950
	1    0    0    -1  
$EndComp
Wire Wire Line
	8850 4500 8850 4800
Wire Wire Line
	8250 4800 8250 4500
Connection ~ 8250 4500
$Comp
L power:GND #PWR0166
U 1 1 5E92E18F
P 8250 5200
F 0 "#PWR0166" H 8250 4950 50  0001 C CNN
F 1 "GND" H 8255 5027 50  0000 C CNN
F 2 "" H 8250 5200 50  0001 C CNN
F 3 "" H 8250 5200 50  0001 C CNN
	1    8250 5200
	1    0    0    -1  
$EndComp
$Comp
L power:GND #PWR0169
U 1 1 5E92E195
P 8850 5200
F 0 "#PWR0169" H 8850 4950 50  0001 C CNN
F 1 "GND" H 8855 5027 50  0000 C CNN
F 2 "" H 8850 5200 50  0001 C CNN
F 3 "" H 8850 5200 50  0001 C CNN
	1    8850 5200
	1    0    0    -1  
$EndComp
Wire Wire Line
	8850 5100 8850 5200
Wire Wire Line
	8250 5100 8250 5200
$Comp
L Device:R R140
U 1 1 5E92E19D
P 9250 4500
F 0 "R140" V 9043 4500 50  0000 C CNN
F 1 "0R(1%)" V 9134 4500 50  0000 C CNN
F 2 "Resistor_SMD:R_0805_2012Metric_Pad1.15x1.40mm_HandSolder" V 9180 4500 50  0001 C CNN
F 3 "~" H 9250 4500 50  0001 C CNN
	1    9250 4500
	0    1    1    0   
$EndComp
Wire Wire Line
	9100 4500 8850 4500
Connection ~ 8850 4500
$Comp
L Device:LED D9
U 1 1 5E92E1A5
P 7900 4950
F 0 "D9" H 7900 5150 50  0000 C CNN
F 1 "STM_PWR_LED" H 7800 5050 50  0000 C CNN
F 2 "LED_SMD:LED_0805_2012Metric" H 7900 4950 50  0001 C CNN
F 3 "~" H 7900 4950 50  0001 C CNN
	1    7900 4950
	0    -1   -1   0   
$EndComp
$Comp
L Device:R R137
U 1 1 5E92E1AB
P 7900 4650
F 0 "R137" V 7700 4650 50  0000 C CNN
F 1 "2K(1%)" V 7800 4650 50  0000 C CNN
F 2 "Resistor_SMD:R_0805_2012Metric_Pad1.15x1.40mm_HandSolder" V 7830 4650 50  0001 C CNN
F 3 "~" H 7900 4650 50  0001 C CNN
	1    7900 4650
	1    0    0    -1  
$EndComp
$Comp
L power:GND #PWR0154
U 1 1 5E92E1B1
P 7900 5150
F 0 "#PWR0154" H 7900 4900 50  0001 C CNN
F 1 "GND" H 7905 4977 50  0000 C CNN
F 2 "" H 7900 5150 50  0001 C CNN
F 3 "" H 7900 5150 50  0001 C CNN
	1    7900 5150
	1    0    0    -1  
$EndComp
Wire Wire Line
	7900 5100 7900 5150
$Comp
L Device:C C42
U 1 1 5E92E1BB
P 8250 4950
F 0 "C42" H 8150 5050 50  0000 L CNN
F 1 "10uF/16V(10%)" V 8400 4650 50  0000 L CNN
F 2 "Capacitor_SMD:C_0805_2012Metric_Pad1.15x1.40mm_HandSolder" H 8288 4800 50  0001 C CNN
F 3 "~" H 8250 4950 50  0001 C CNN
	1    8250 4950
	1    0    0    -1  
$EndComp
$Comp
L Device:C C45
U 1 1 5E92E1C1
P 8850 4950
F 0 "C45" H 8750 5050 50  0000 L CNN
F 1 "0.1uF/16V(10%)" V 9000 4650 50  0000 L CNN
F 2 "Capacitor_SMD:C_0805_2012Metric_Pad1.15x1.40mm_HandSolder" H 8888 4800 50  0001 C CNN
F 3 "~" H 8850 4950 50  0001 C CNN
	1    8850 4950
	1    0    0    -1  
$EndComp
$Comp
L Jumper:SolderJumper_2_Bridged JP30
U 1 1 5E947873
P 8550 4500
F 0 "JP30" H 8550 4705 50  0000 C CNN
F 1 "BRIG" H 8550 4614 50  0000 C CNN
F 2 "Jumper:SolderJumper-2_P1.3mm_Bridged2Bar_Pad1.0x1.5mm" H 8550 4500 50  0001 C CNN
F 3 "~" H 8550 4500 50  0001 C CNN
	1    8550 4500
	1    0    0    -1  
$EndComp
Wire Wire Line
	8250 4500 8400 4500
Wire Wire Line
	8700 4500 8850 4500
$Comp
L Jumper:SolderJumper_2_Bridged JP29
U 1 1 5E9591F7
P 8550 3000
F 0 "JP29" H 8550 3205 50  0000 C CNN
F 1 "BRIG" H 8550 3114 50  0000 C CNN
F 2 "Jumper:SolderJumper-2_P1.3mm_Bridged2Bar_Pad1.0x1.5mm" H 8550 3000 50  0001 C CNN
F 3 "~" H 8550 3000 50  0001 C CNN
	1    8550 3000
	1    0    0    -1  
$EndComp
$Comp
L Jumper:SolderJumper_2_Bridged JP28
U 1 1 5E959A94
P 8550 1500
F 0 "JP28" H 8550 1705 50  0000 C CNN
F 1 "BRIG" H 8550 1614 50  0000 C CNN
F 2 "Jumper:SolderJumper-2_P1.3mm_Bridged2Bar_Pad1.0x1.5mm" H 8550 1500 50  0001 C CNN
F 3 "~" H 8550 1500 50  0001 C CNN
	1    8550 1500
	1    0    0    -1  
$EndComp
Wire Wire Line
	8400 1500 8250 1500
Connection ~ 8250 1500
Wire Wire Line
	8700 1500 8850 1500
Connection ~ 8850 1500
Wire Wire Line
	8850 1500 9100 1500
Wire Wire Line
	8850 3000 8700 3000
Connection ~ 8850 3000
Wire Wire Line
	8400 3000 8250 3000
Connection ~ 8250 3000
$Comp
L power:+5V #PWR0140
U 1 1 5ECAB4A5
P 2500 4650
F 0 "#PWR0140" H 2500 4500 50  0001 C CNN
F 1 "+5V" H 2515 4823 50  0000 C CNN
F 2 "" H 2500 4650 50  0001 C CNN
F 3 "" H 2500 4650 50  0001 C CNN
	1    2500 4650
	1    0    0    -1  
$EndComp
$Comp
L power:+5V #PWR0143
U 1 1 5ECB1818
P 2500 1500
F 0 "#PWR0143" H 2500 1350 50  0001 C CNN
F 1 "+5V" H 2515 1673 50  0000 C CNN
F 2 "" H 2500 1500 50  0001 C CNN
F 3 "" H 2500 1500 50  0001 C CNN
	1    2500 1500
	1    0    0    -1  
$EndComp
$Comp
L power:+VSW #PWR0144
U 1 1 5ECB4CF4
P 2200 4650
F 0 "#PWR0144" H 2200 4500 50  0001 C CNN
F 1 "+VSW" H 2215 4823 50  0000 C CNN
F 2 "" H 2200 4650 50  0001 C CNN
F 3 "" H 2200 4650 50  0001 C CNN
	1    2200 4650
	1    0    0    -1  
$EndComp
$Comp
L power:+VSW #PWR0151
U 1 1 5ECB86DB
P 4500 4300
F 0 "#PWR0151" H 4500 4150 50  0001 C CNN
F 1 "+VSW" H 4515 4473 50  0000 C CNN
F 2 "" H 4500 4300 50  0001 C CNN
F 3 "" H 4500 4300 50  0001 C CNN
	1    4500 4300
	1    0    0    -1  
$EndComp
Wire Wire Line
	2500 1600 2500 1500
Wire Wire Line
	2000 1600 2500 1600
$Comp
L power:+5V #PWR0148
U 1 1 5ECBE913
P 3000 2950
F 0 "#PWR0148" H 3000 2800 50  0001 C CNN
F 1 "+5V" H 3015 3123 50  0000 C CNN
F 2 "" H 3000 2950 50  0001 C CNN
F 3 "" H 3000 2950 50  0001 C CNN
	1    3000 2950
	1    0    0    -1  
$EndComp
NoConn ~ 1950 3150
$Comp
L power:+5VD #PWR0138
U 1 1 5ECCA3EA
P 1900 4650
F 0 "#PWR0138" H 1900 4500 50  0001 C CNN
F 1 "+5VD" H 1915 4823 50  0000 C CNN
F 2 "" H 1900 4650 50  0001 C CNN
F 3 "" H 1900 4650 50  0001 C CNN
	1    1900 4650
	1    0    0    -1  
$EndComp
$Comp
L power:+5VD #PWR0146
U 1 1 5ECCE923
P 2800 2950
F 0 "#PWR0146" H 2800 2800 50  0001 C CNN
F 1 "+5VD" H 2815 3123 50  0000 C CNN
F 2 "" H 2800 2950 50  0001 C CNN
F 3 "" H 2800 2950 50  0001 C CNN
	1    2800 2950
	1    0    0    -1  
$EndComp
Wire Wire Line
	2800 2950 2800 3050
$Comp
L Custom-power:+3V3ESP #PWR0170
U 1 1 5ECECFD5
P 9800 1300
F 0 "#PWR0170" H 9600 1300 50  0001 C CNN
F 1 "+3V3ESP" H 9782 1473 50  0000 C CNN
F 2 "" H 9800 1300 50  0001 C CNN
F 3 "" H 9800 1300 50  0001 C CNN
	1    9800 1300
	1    0    0    -1  
$EndComp
$Comp
L Custom-power:+3V3SENS #PWR0171
U 1 1 5ECF2A31
P 9800 2800
F 0 "#PWR0171" H 9600 2800 50  0001 C CNN
F 1 "+3V3SENS" H 9782 2973 50  0000 C CNN
F 2 "" H 9800 2800 50  0001 C CNN
F 3 "" H 9800 2800 50  0001 C CNN
	1    9800 2800
	1    0    0    -1  
$EndComp
$Comp
L Custom-power:+3V3STM #PWR0172
U 1 1 5ECF8D56
P 9800 4300
F 0 "#PWR0172" H 9600 4300 50  0001 C CNN
F 1 "+3V3STM" H 9782 4473 50  0000 C CNN
F 2 "" H 9800 4300 50  0001 C CNN
F 3 "" H 9800 4300 50  0001 C CNN
	1    9800 4300
	1    0    0    -1  
$EndComp
Wire Wire Line
	9800 4300 9800 4500
Wire Wire Line
	9800 4500 9400 4500
Wire Wire Line
	9800 2800 9800 3000
Wire Wire Line
	9800 3000 9400 3000
Wire Wire Line
	9400 1500 9800 1500
Wire Wire Line
	9800 1500 9800 1300
Wire Wire Line
	5800 4500 6250 4500
$Comp
L power:+VSW #PWR0149
U 1 1 5ED408F0
P 4500 1300
F 0 "#PWR0149" H 4500 1150 50  0001 C CNN
F 1 "+VSW" H 4515 1473 50  0000 C CNN
F 2 "" H 4500 1300 50  0001 C CNN
F 3 "" H 4500 1300 50  0001 C CNN
	1    4500 1300
	1    0    0    -1  
$EndComp
Wire Wire Line
	4500 1300 4500 1500
Wire Wire Line
	4500 1500 4700 1500
$Comp
L power:+VSW #PWR0150
U 1 1 5ED44148
P 4500 2800
F 0 "#PWR0150" H 4500 2650 50  0001 C CNN
F 1 "+VSW" H 4515 2973 50  0000 C CNN
F 2 "" H 4500 2800 50  0001 C CNN
F 3 "" H 4500 2800 50  0001 C CNN
	1    4500 2800
	1    0    0    -1  
$EndComp
Wire Wire Line
	4500 2800 4500 3000
Wire Wire Line
	4500 3000 4700 3000
Wire Wire Line
	4500 4300 4500 4500
Wire Wire Line
	4500 4500 4700 4500
$Comp
L Connector_Generic:Conn_01x03 J35
U 1 1 5F35ADFC
P 2950 5000
F 0 "J35" H 3030 5042 50  0000 L CNN
F 1 "SEL-V-IN" H 3030 4951 50  0000 L CNN
F 2 "Connector_PinHeader_2.54mm:PinHeader_1x03_P2.54mm_Vertical" H 2950 5000 50  0001 C CNN
F 3 "~" H 2950 5000 50  0001 C CNN
	1    2950 5000
	1    0    0    -1  
$EndComp
Wire Wire Line
	2750 4900 2500 4900
Wire Wire Line
	2500 4900 2500 4650
Wire Wire Line
	2750 5000 2200 5000
Wire Wire Line
	2200 5000 2200 4650
Wire Wire Line
	1900 4650 1900 5100
Wire Wire Line
	1900 5100 2750 5100
$Comp
L Connector:Conn_01x01_Female J36
U 1 1 5EAB1F49
P 3350 6000
F 0 "J36" H 3378 6026 50  0000 L CNN
F 1 "HOLE" H 3378 5935 50  0000 L CNN
F 2 "MountingHole:MountingHole_3.2mm_M3_Pad_Via" H 3350 6000 50  0001 C CNN
F 3 "~" H 3350 6000 50  0001 C CNN
	1    3350 6000
	1    0    0    -1  
$EndComp
$Comp
L Connector:Conn_01x01_Female J37
U 1 1 5EAB27D6
P 3350 6250
F 0 "J37" H 3378 6276 50  0000 L CNN
F 1 "HOLE" H 3378 6185 50  0000 L CNN
F 2 "MountingHole:MountingHole_3.2mm_M3_Pad_Via" H 3350 6250 50  0001 C CNN
F 3 "~" H 3350 6250 50  0001 C CNN
	1    3350 6250
	1    0    0    -1  
$EndComp
$Comp
L Connector:Conn_01x01_Female J38
U 1 1 5EAB2D78
P 3350 6500
F 0 "J38" H 3378 6526 50  0000 L CNN
F 1 "HOLE" H 3378 6435 50  0000 L CNN
F 2 "MountingHole:MountingHole_3.2mm_M3_Pad_Via" H 3350 6500 50  0001 C CNN
F 3 "~" H 3350 6500 50  0001 C CNN
	1    3350 6500
	1    0    0    -1  
$EndComp
$Comp
L Connector:Conn_01x01_Female J39
U 1 1 5EAB2FE0
P 3350 6750
F 0 "J39" H 3378 6776 50  0000 L CNN
F 1 "HOLE" H 3378 6685 50  0000 L CNN
F 2 "MountingHole:MountingHole_3.2mm_M3_Pad_Via" H 3350 6750 50  0001 C CNN
F 3 "~" H 3350 6750 50  0001 C CNN
	1    3350 6750
	1    0    0    -1  
$EndComp
Wire Wire Line
	3150 6000 3000 6000
Wire Wire Line
	3000 6000 3000 6250
Wire Wire Line
	3000 6750 3150 6750
Wire Wire Line
	3150 6500 3000 6500
Connection ~ 3000 6500
Wire Wire Line
	3000 6500 3000 6750
Wire Wire Line
	3150 6250 3000 6250
Connection ~ 3000 6250
$Comp
L power:GND #PWR?
U 1 1 5EABBB8C
P 1600 6650
AR Path="/5E837FB0/5EABBB8C" Ref="#PWR?"  Part="1" 
AR Path="/5E84ABE1/5EABBB8C" Ref="#PWR0173"  Part="1" 
F 0 "#PWR0173" H 1600 6400 50  0001 C CNN
F 1 "GND" H 1605 6477 50  0000 C CNN
F 2 "" H 1600 6650 50  0001 C CNN
F 3 "" H 1600 6650 50  0001 C CNN
	1    1600 6650
	1    0    0    -1  
$EndComp
$Comp
L BLM18SG121TN1D:BLM18SG121TN1D FL6
U 1 1 5EBBEA3F
P 2250 6500
F 0 "FL6" H 2200 6742 50  0000 C CNN
F 1 "BLM18SG121TN1D" H 2200 6651 50  0000 C CNN
F 2 "BLM18SG121:BEADC1608X65N" H 2250 6500 50  0001 L BNN
F 3 "" H 2250 6500 50  0001 C CNN
	1    2250 6500
	-1   0    0    1   
$EndComp
Wire Wire Line
	3000 6250 3000 6500
Wire Wire Line
	2850 6500 3000 6500
Wire Wire Line
	1750 6500 1600 6500
Wire Wire Line
	1600 6500 1600 6650
$Comp
L power:VSS #PWR0175
U 1 1 5EBCE114
P 3000 6000
F 0 "#PWR0175" H 3000 5850 50  0001 C CNN
F 1 "VSS" H 3017 6173 50  0000 C CNN
F 2 "" H 3000 6000 50  0001 C CNN
F 3 "" H 3000 6000 50  0001 C CNN
	1    3000 6000
	1    0    0    -1  
$EndComp
Connection ~ 3000 6000
$Comp
L power:VSS #PWR0174
U 1 1 5EBCE5EE
P 1600 2350
F 0 "#PWR0174" H 1600 2200 50  0001 C CNN
F 1 "VSS" V 1618 2478 50  0000 L CNN
F 2 "" H 1600 2350 50  0001 C CNN
F 3 "" H 1600 2350 50  0001 C CNN
	1    1600 2350
	0    -1   -1   0   
$EndComp
Wire Wire Line
	1700 2200 1700 2400
Wire Wire Line
	1600 2200 1600 2350
$Comp
L PJ-002A:PJ-002A J33
U 1 1 5EC91142
P 1750 3150
F 0 "J33" H 1745 3490 50  0000 C CNN
F 1 "PWR IN 5V" H 1745 3399 50  0000 C CNN
F 2 "PJ-002A:CUI_PJ-002A" H 1750 3150 50  0001 L BNN
F 3 "Manufacturer recommendations" H 1750 3150 50  0001 L BNN
F 4 "CUI INC" H 1750 3150 50  0001 L BNN "Field4"
	1    1750 3150
	1    0    0    -1  
$EndComp
Wire Wire Line
	2450 2000 2450 1900
Wire Wire Line
	2000 1900 2450 1900
Wire Wire Line
	2650 1800 2650 2000
Wire Wire Line
	2000 1800 2650 1800
NoConn ~ 2000 2000
$Comp
L power:+5VD #PWR0141
U 1 1 5ECCF4CD
P 2350 2875
F 0 "#PWR0141" H 2350 2725 50  0001 C CNN
F 1 "+5VD" H 2365 3048 50  0000 C CNN
F 2 "" H 2350 2875 50  0001 C CNN
F 3 "" H 2350 2875 50  0001 C CNN
	1    2350 2875
	1    0    0    -1  
$EndComp
$Comp
L Device:CP C76
U 1 1 66BE9E87
P 2350 3075
F 0 "C76" H 2400 3175 50  0000 L CNN
F 1 "100uF/Tan" H 2125 2975 50  0000 L CNN
F 2 "Capacitor_Tantalum_SMD:CP_EIA-3528-21_Kemet-B_Pad1.50x2.35mm_HandSolder" H 2388 2925 50  0001 C CNN
F 3 "~" H 2350 3075 50  0001 C CNN
	1    2350 3075
	1    0    0    -1  
$EndComp
Wire Wire Line
	2350 3225 2350 3250
Connection ~ 2350 3250
Wire Wire Line
	1950 3050 2175 3050
Wire Wire Line
	2175 3050 2175 2900
Wire Wire Line
	2175 2900 2350 2900
Wire Wire Line
	2350 2900 2350 2875
Wire Wire Line
	2350 2900 2350 2925
Connection ~ 2350 2900
Text HLabel 2650 1800 2    50   Input ~ 0
D+
Text HLabel 2450 1900 2    50   Input ~ 0
D-
$Comp
L Device:LED D11
U 1 1 5EBF9F2A
P 4500 3500
F 0 "D11" H 4500 3700 50  0000 C CNN
F 1 "5V_IN_LED" H 4400 3600 50  0000 C CNN
F 2 "LED_SMD:LED_0805_2012Metric" H 4500 3500 50  0001 C CNN
F 3 "~" H 4500 3500 50  0001 C CNN
	1    4500 3500
	0    -1   -1   0   
$EndComp
$Comp
L Device:R R172
U 1 1 5EBF9F30
P 4500 3200
F 0 "R172" V 4300 3200 50  0000 C CNN
F 1 "2K(1%)" V 4400 3200 50  0000 C CNN
F 2 "Resistor_SMD:R_0805_2012Metric_Pad1.15x1.40mm_HandSolder" V 4430 3200 50  0001 C CNN
F 3 "~" H 4500 3200 50  0001 C CNN
	1    4500 3200
	1    0    0    -1  
$EndComp
$Comp
L power:GND #PWR0220
U 1 1 5EBF9F36
P 4500 3700
F 0 "#PWR0220" H 4500 3450 50  0001 C CNN
F 1 "GND" H 4505 3527 50  0000 C CNN
F 2 "" H 4500 3700 50  0001 C CNN
F 3 "" H 4500 3700 50  0001 C CNN
	1    4500 3700
	1    0    0    -1  
$EndComp
Wire Wire Line
	4500 3650 4500 3700
Wire Wire Line
	4500 3050 4500 3000
Connection ~ 4500 3000
Wire Wire Line
	5800 3000 6250 3000
Connection ~ 6250 3000
Wire Wire Line
	6250 3000 6700 3000
Connection ~ 6250 4500
Wire Wire Line
	6250 4500 6700 4500
Wire Wire Line
	5800 1500 6250 1500
Connection ~ 6250 1500
Wire Wire Line
	6250 1500 6700 1500
Wire Wire Line
	7100 1500 6700 1500
Connection ~ 6700 1500
Wire Wire Line
	7100 3000 6700 3000
Connection ~ 6700 3000
Wire Wire Line
	7100 4500 6700 4500
Connection ~ 6700 4500
Wire Wire Line
	7700 4500 7900 4500
Wire Wire Line
	7700 3000 7900 3000
Wire Wire Line
	7700 1500 7925 1500
Connection ~ 7925 1500
Wire Wire Line
	7925 1500 8250 1500
Connection ~ 7900 3000
Wire Wire Line
	7900 3000 8250 3000
Connection ~ 7900 4500
Wire Wire Line
	7900 4500 8250 4500
$EndSCHEMATC
