EESchema Schematic File Version 4
EELAYER 30 0
EELAYER END
$Descr A4 11693 8268
encoding utf-8
Sheet 1 4
Title ""
Date ""
Rev ""
Comp ""
Comment1 ""
Comment2 ""
Comment3 ""
Comment4 ""
$EndDescr
Wire Wire Line
	5550 1700 6500 1700
Wire Wire Line
	6500 1800 5550 1800
$Sheet
S 6500 1300 1750 2400
U 5E837FFA
F0 "STM32F412VG" 79
F1 "STM32.sch" 79
F2 "I2C_SDA" B L 6500 1450 50 
F3 "I2C_SCL" B L 6500 1550 50 
F4 "STM_TX" O L 6500 1700 50 
F5 "STM_RX" I L 6500 1800 50 
F6 "STM_NRST" I L 6500 1950 50 
F7 "STM_NJRST" I L 6500 2050 50 
F8 "STM_JTDO" O L 6500 2150 50 
F9 "STM_JTDI" I L 6500 2250 50 
F10 "STM_JTCK" I L 6500 2350 50 
F11 "STM_JTMS" I L 6500 2450 50 
F12 "SPI_MOSI" I L 6500 2650 50 
F13 "SPI_MISO" O L 6500 2750 50 
F14 "SPI_CLK" I L 6500 2850 50 
F15 "SPI_NSS" I L 6500 2950 50 
$EndSheet
Wire Wire Line
	5550 1950 6500 1950
Wire Wire Line
	5550 2050 6500 2050
Wire Wire Line
	6500 2150 5550 2150
Wire Wire Line
	5550 2250 6500 2250
Wire Wire Line
	6500 2350 5550 2350
Wire Wire Line
	5550 2450 6500 2450
Wire Wire Line
	6500 1450 5550 1450
Wire Wire Line
	5550 1550 6500 1550
Wire Wire Line
	5550 2650 6500 2650
Wire Wire Line
	6500 2750 5550 2750
Wire Wire Line
	5550 2850 6500 2850
Wire Wire Line
	6500 2950 5550 2950
$Sheet
S 3900 1300 1650 2400
U 5E837FB0
F0 "ESP32-Wrover" 79
F1 "ESP32.sch" 79
F2 "I2C_SDA" B R 5550 1450 50 
F3 "I2C_SCL" B R 5550 1550 50 
F4 "ESP_RXD1" I R 5550 1700 50 
F5 "ESP_TXD1" O R 5550 1800 50 
F6 "ESP_NRST_O" O R 5550 1950 50 
F7 "ESP_NJRST_O" O R 5550 2050 50 
F8 "ESP_MTDI" I R 5550 2150 50 
F9 "ESP_MTDO" O R 5550 2250 50 
F10 "ESP_MTCK" B R 5550 2350 50 
F11 "ESP_MTMS" B R 5550 2450 50 
F12 "VSPI_MOSI" O R 5550 2650 50 
F13 "VSPI_MISO" I R 5550 2750 50 
F14 "VSPI_CLK" O R 5550 2850 50 
F15 "VSPI_CS0" O R 5550 2950 50 
F16 "D+" B R 5550 3250 50 
F17 "D-" B R 5550 3350 50 
$EndSheet
$Sheet
S 5500 4500 1000 900 
U 5E84ABE1
F0 "PowerSupply" 79
F1 "PowerSupply.sch" 79
F2 "D+" B L 5500 4625 50 
F3 "D-" B L 5500 4725 50 
$EndSheet
Wire Wire Line
	5500 4625 5400 4625
Wire Wire Line
	5400 4625 5400 4075
Wire Wire Line
	5400 4075 5700 4075
Wire Wire Line
	5700 4075 5700 3250
Wire Wire Line
	5700 3250 5550 3250
Wire Wire Line
	5550 3350 5625 3350
Wire Wire Line
	5625 3350 5625 4000
Wire Wire Line
	5625 4000 5325 4000
Wire Wire Line
	5325 4000 5325 4725
Wire Wire Line
	5325 4725 5500 4725
$EndSCHEMATC
